<?xml version="1.0" encoding="UTF-8"?>
<svg width="44px" height="44px" viewBox="0 0 44 44" version="1.1" xmlns="http://www.w3.org/2000/svg" xmlns:xlink="http://www.w3.org/1999/xlink">
    <!-- Generator: Sketch 61.2 (89653) - https://sketch.com -->
    <title>DataTransformation</title>
    <desc>Created with Sketch.</desc>
    <g id="Drafts" stroke="none" stroke-width="1" fill="none" fill-rule="evenodd">
        <g id="Artboard" transform="translate(-312.000000, -270.000000)" fill="#222222">
            <g id="DataAnalysis" transform="translate(312.000000, 270.000000)">
                <g id="ui-2">
                    <path d="M21.9736661,-7.4782136e-13 C25.3515016,-7.4782136e-13 28.4355249,2.13465548 30.7679513,5.63396446 C35.5479197,5.63463378 39.4431054,7.23052212 41.2829449,10.4172792 C43.0709154,13.5140188 42.5866943,17.5410518 40.3646984,21.5654078 C42.5866943,25.5894291 43.0709154,29.6167968 41.2829449,32.7135364 C39.5036749,35.7952172 35.8012406,37.3874245 31.2364444,37.4898238 C28.856834,41.4255006 25.5830709,43.8616649 21.9736661,43.8616649 C18.3642613,43.8616649 15.0904982,41.4255006 12.7108877,37.4898238 C8.14542223,37.3877592 4.44365731,35.7955518 2.66438728,32.7135364 C0.8760821,29.6167968 1.36063785,25.5894291 3.58263381,21.5654078 C1.36063785,17.5410518 0.8760821,13.5140188 2.66438728,10.4172792 C4.50422676,7.23018751 8.39941245,5.63429908 13.1793809,5.63396446 C15.5118073,2.13432078 18.5958306,-7.4782136e-13 21.9736661,-7.4782136e-13 Z M38.0563658,38.0135321 C39.6713286,38.0135321 40.9804322,39.3226358 40.9804322,40.9375985 C40.9804322,42.5525612 39.6713286,43.8616649 38.0563658,43.8616649 C36.441403,43.8616649 35.1322994,42.5525612 35.1322994,40.9375985 C35.1339726,39.3233051 36.4420723,38.0152053 38.0563658,38.0135321 Z M2.96689999,41.6684478 C3.37080801,41.6684478 3.69808396,41.9957237 3.69808396,42.3996317 L3.69808396,42.3996317 L3.69808396,43.130481 C3.69808396,43.534389 3.37080801,43.8616649 2.96689999,43.8616649 C2.56332667,43.8616649 2.23605071,43.534389 2.23605071,43.130481 L2.23605071,43.130481 L2.23605071,42.3996317 C2.23605071,41.9957237 2.56332667,41.6684478 2.96689999,41.6684478 Z M38.0563658,39.4755653 C37.2488844,39.4755653 36.5943326,40.1301171 36.5943326,40.9375985 C36.5943326,41.7450799 37.2488844,42.3996317 38.0563658,42.3996317 C38.8638471,42.3996317 39.518399,41.7450799 39.518399,40.9375985 C39.517395,40.1304517 38.8635125,39.4765692 38.0563658,39.4755653 Z M21.9736661,35.934092 C19.5164196,36.7813952 16.9561048,37.2923873 14.3619914,37.4526789 C16.4093063,40.532352 19.0683395,42.3996317 21.9736661,42.3996317 C24.8789927,42.3996317 27.5380259,40.532352 29.5853408,37.4526789 C26.9912274,37.2923873 24.4309126,36.7813952 21.9736661,35.934092 Z M1.50486682,40.2064146 C1.90877484,40.2064146 2.23605071,40.5336905 2.23605071,40.9375985 C2.23605071,41.3411719 1.90877484,41.6684478 1.50486682,41.6684478 L1.50486682,41.6684478 L0.774017548,41.6684478 C0.370109526,41.6684478 0.0428336571,41.3411719 0.0428336571,40.9375985 C0.0428336571,40.5336905 0.370109526,40.2064146 0.774017548,40.2064146 L0.774017548,40.2064146 Z M5.16011713,40.2064146 C5.56369045,40.2064146 5.8909664,40.5336905 5.8909664,40.9375985 C5.8909664,41.3411719 5.56369045,41.6684478 5.16011713,41.6684478 L5.16011713,41.6684478 L4.42893324,41.6684478 C4.02535983,41.6684478 3.69808396,41.3411719 3.69808396,40.9375985 C3.69808396,40.5336905 4.02535983,40.2064146 4.42893324,40.2064146 L4.42893324,40.2064146 Z M2.96689999,38.0135321 C3.37080801,38.0135321 3.69808396,38.3408081 3.69808396,38.7443814 L3.69808396,38.7443814 L3.69808396,39.4755653 C3.69808396,39.8791387 3.37080801,40.2064146 2.96689999,40.2064146 C2.56332667,40.2064146 2.23605071,39.8791387 2.23605071,39.4755653 L2.23605071,39.4755653 L2.23605071,38.7443814 C2.23605071,38.3408081 2.56332667,38.0135321 2.96689999,38.0135321 Z M32.6686949,30.2040864 C31.3595912,31.2133545 29.9845639,32.1346127 28.5529827,32.9611684 C27.1431531,33.7726655 25.6814545,34.4907985 24.1775916,35.1105479 C26.20784,35.6911448 28.3020043,36.0170822 30.4125658,36.0816673 C31.4077791,34.2247613 32.165734,32.2500628 32.6686949,30.2040864 Z M11.2786373,30.2040864 C11.7815982,32.2497281 12.5392185,34.2244266 13.5344317,36.0813327 C15.6449933,36.0167475 17.7391575,35.6908102 19.7694059,35.1105479 C18.265543,34.4904638 16.8041791,33.7726655 15.3943495,32.9611684 C13.9627683,32.1346127 12.587741,31.2133545 11.2786373,30.2040864 Z M4.43361813,22.9745682 C2.78753405,26.2794526 2.49271804,29.4923115 3.93065727,31.9823524 C5.35956135,34.4576693 8.26154162,35.8079334 11.9147841,36.0471996 C10.7646335,33.7221351 9.93841238,31.2504992 9.45988008,28.7008928 C7.53838903,27.023018 5.84813275,25.0971767 4.43361813,22.9745682 Z M39.5137141,22.9749028 C38.0991994,25.0975113 36.4089432,27.023018 34.4874521,28.7008928 C34.0089198,31.2504992 33.1826987,33.7224697 32.0325481,36.0478688 C35.6857906,35.8086027 38.5877708,34.458004 40.0166749,31.9823524 C41.4546142,29.4923115 41.1597981,26.2794526 39.5137141,22.9749028 Z M21.9719929,8.71932633 C17.9593493,10.167974 14.2321518,12.3093222 10.9597274,15.046326 C10.5016081,17.3124942 10.2730503,19.6188189 10.277014,21.9308324 C10.2747235,23.9450183 10.4470621,25.955523 10.7924084,27.939926 C12.4522126,29.3510943 14.2371714,30.6079943 16.1255334,31.6948984 C17.9894668,32.7741058 19.9467641,33.6833171 21.9736661,34.4114893 C24.0005681,33.6833171 25.9578654,32.7741058 27.8217988,31.6948984 C29.7101608,30.6079943 31.4951196,29.3510943 33.1549238,27.939926 C33.5002701,25.955523 33.6726087,23.9450183 33.6703182,21.9308324 C33.6742819,19.6188189 33.4457241,17.3124942 32.9876048,15.046326 C29.7145111,12.3083183 25.9859751,10.1669701 21.9719929,8.71932633 Z M21.9736661,12.4274494 C24.4171924,12.4274494 28.5529827,12.9377723 28.5529827,14.8515667 L28.5529827,14.8515667 L28.5529827,27.548065 C28.5529827,29.4618594 24.4171924,29.9721823 21.9736661,29.9721823 C19.5301398,29.9721823 15.3943495,29.4618594 15.3943495,27.548065 L15.3943495,27.548065 L15.3943495,14.8515667 C15.3943495,12.9377723 19.5301398,12.4274494 21.9736661,12.4274494 Z M27.0909496,24.9328695 C25.4465387,25.5037618 23.7137834,25.7768263 21.9736661,25.7393469 C20.2335488,25.777161 18.5007935,25.5044311 16.8563826,24.9338734 L16.8563826,24.9338734 L16.8563826,27.4868263 C17.1113768,27.8084133 18.8394471,28.5101491 21.9736661,28.5101491 C25.1078851,28.5101491 26.8359554,27.807744 27.0909496,27.4868263 L27.0909496,27.4868263 Z M9.20488601,16.6395372 C7.67592517,18.1099364 6.3353656,19.7643864 5.21432852,21.5654078 C6.30558284,23.3202492 7.60632047,24.9358812 9.08742807,26.3768322 C8.68853963,23.1405486 8.72802687,19.8651124 9.20488601,16.6395372 Z M34.7424462,16.6395372 C35.0027946,18.3913669 35.1329687,20.1599284 35.1322994,21.9308324 C35.1329687,23.4169595 35.0419472,24.9017482 34.8599041,26.3768322 C36.3410117,24.9358812 37.6417494,23.3202492 38.7330037,21.5654078 C37.6119666,19.7643864 36.271407,18.1099364 34.7424462,16.6395372 Z M27.0909496,20.7013727 C25.4465387,21.2719303 23.7137834,21.5453295 21.9736661,21.5078501 C20.2335488,21.5453295 18.5007935,21.2719303 16.8563826,20.7013727 L16.8563826,20.7013727 L16.8563826,23.2549948 C17.1113768,23.5762472 18.8394471,24.277983 21.9736661,24.277983 C25.1078851,24.277983 26.8359554,23.5762472 27.0909496,23.2549948 L27.0909496,23.2549948 Z M31.6349983,7.06219922 C32.8597731,9.32502097 33.7576068,11.7504768 34.3010588,14.2659503 C36.2981781,15.9833122 38.0520155,17.9647035 39.5137141,20.1559128 C41.1597981,16.851363 41.4546142,13.6385041 40.0166749,11.1481285 C38.5359019,8.58379798 35.4742994,7.2271757 31.6349983,7.06219922 Z M12.3140072,7.0591875 C8.47269818,7.22349466 5.41143025,8.58279404 3.93065727,11.1481285 C2.49271804,13.6385041 2.78753405,16.851363 4.43361813,20.1559128 C5.89531668,17.9647035 7.64915413,15.9833122 9.64627339,14.2659503 C10.1900601,11.7494729 11.0882284,9.32301318 12.3140072,7.0591875 Z M27.0909496,16.4685372 C25.4465387,17.0394296 23.7137834,17.3124942 21.9736661,17.2750147 C20.2335488,17.3124942 18.5007935,17.0394296 16.8563826,16.4685372 L16.8563826,16.4685372 L16.8563826,19.0228287 C17.1113768,19.3437465 18.8394471,20.0454823 21.9736661,20.0454823 C25.1078851,20.0454823 26.8359554,19.3437465 27.0909496,19.0228287 L27.0909496,19.0228287 Z M21.9736661,13.8894826 C19.0201516,13.8894826 17.3171791,14.5109053 16.9156135,14.8515667 C17.3171791,15.1915588 19.0211555,15.8129816 21.9736661,15.8129816 C24.9261767,15.8129816 26.6304878,15.1915588 27.0317187,14.8515667 C26.6301531,14.5109053 24.9271806,13.8894826 21.9736661,13.8894826 Z M29.9996226,7.06219922 C28.0322861,7.15824033 26.0823508,7.47882344 24.1879654,8.01725596 C27.1203977,9.23232628 29.8861803,10.816837 32.4177164,12.7323046 C31.8618827,10.7448898 31.0490472,8.83879205 29.9996226,7.06219922 Z M13.9396783,7.07558473 C12.894604,8.84849653 12.0844455,10.750244 11.5302851,12.7323046 C14.0578055,10.8195141 16.8192378,9.23667655 19.7469852,8.02194085 C17.8536037,7.48585081 15.9050069,7.16861413 13.9396783,7.07558473 Z M21.9736661,1.46203317 C19.2999089,1.46203317 16.8346312,3.04386676 14.8622751,5.69553784 C17.2853885,5.89464744 19.6743687,6.39560043 21.9736661,7.18601521 C24.2729634,6.39560043 26.6619437,5.89498206 29.0850571,5.69587246 C27.112701,3.04386676 24.6474233,1.46203317 21.9736661,1.46203317 Z M2.96689999,0.731183891 C4.58186276,0.731183891 5.8909664,2.04028754 5.8909664,3.65525031 C5.8909664,5.27021299 4.58186276,6.57931664 2.96689999,6.57931664 C1.35260654,6.57764347 0.0445068254,5.26954376 0.0428336571,3.65525031 C0.0428336571,2.04028754 1.3519373,0.731183891 2.96689999,0.731183891 Z M40.2492482,3.65525031 C40.6531563,3.65525031 40.9804322,3.98252618 40.9804322,4.38609958 L40.9804322,4.38609958 L40.9804322,5.11728347 C40.9804322,5.52085679 40.6531563,5.84813275 40.2492482,5.84813275 C39.8456749,5.84813275 39.518399,5.52085679 39.518399,5.11728347 L39.518399,5.11728347 L39.518399,4.38609958 C39.518399,3.98252618 39.8456749,3.65525031 40.2492482,3.65525031 Z M2.96689999,2.19321706 C2.15975335,2.19388638 1.50587076,2.84810358 1.50486682,3.65525031 C1.50486682,4.46273165 2.15941865,5.11728347 2.96689999,5.11728347 C3.77438142,5.11728347 4.42893324,4.46273165 4.42893324,3.65525031 C4.42893324,2.84776896 3.77438142,2.19321706 2.96689999,2.19321706 Z M38.7872151,2.19321706 C39.1911231,2.19321706 39.518399,2.52049301 39.518399,2.92406633 C39.518399,3.32797435 39.1911231,3.65525031 38.7872151,3.65525031 L38.7872151,3.65525031 L38.0563658,3.65525031 C37.6524578,3.65525031 37.3251819,3.32797435 37.3251819,2.92406633 C37.3251819,2.52049301 37.6524578,2.19321706 38.0563658,2.19321706 L38.0563658,2.19321706 Z M42.4424654,2.19321706 C42.8460387,2.19321706 43.1733146,2.52049301 43.1733146,2.92406633 C43.1733146,3.32797435 42.8460387,3.65525031 42.4424654,3.65525031 L42.4424654,3.65525031 L41.7112815,3.65525031 C41.3077081,3.65525031 40.9804322,3.32797435 40.9804322,2.92406633 C40.9804322,2.52049301 41.3077081,2.19321706 41.7112815,2.19321706 L41.7112815,2.19321706 Z M40.2492482,-7.74244668e-13 C40.6531563,-7.74244668e-13 40.9804322,0.327275869 40.9804322,0.731183891 L40.9804322,0.731183891 L40.9804322,1.46203317 C40.9804322,1.86594119 40.6531563,2.19321706 40.2492482,2.19321706 C39.8456749,2.19321706 39.518399,1.86594119 39.518399,1.46203317 L39.518399,1.46203317 L39.518399,0.731183891 C39.518399,0.327275869 39.8456749,-7.74244668e-13 40.2492482,-7.74244668e-13 Z" id="Combined-Shape" fill-rule="nonzero"></path>
                </g>
            </g>
        </g>
    </g>
</svg>