<?xml version="1.0" encoding="UTF-8"?>
<svg width="49px" height="40px" viewBox="0 0 49 40" version="1.1" xmlns="http://www.w3.org/2000/svg" xmlns:xlink="http://www.w3.org/1999/xlink">
    <!-- Generator: Sketch 61.2 (89653) - https://sketch.com -->
    <title>DataPreparation</title>
    <desc>Created with Sketch.</desc>
    <defs>
        <linearGradient x1="50%" y1="0%" x2="50%" y2="100%" id="linearGradient-1">
            <stop stop-color="#3429B7" offset="0%"></stop>
            <stop stop-color="#C144CE" offset="100%"></stop>
        </linearGradient>
    </defs>
    <g id="Drafts" stroke="none" stroke-width="1" fill="none" fill-rule="evenodd">
        <g id="Solutions-Icons" transform="translate(-308.000000, -110.000000)">
            <g id="DataPreparation" transform="translate(308.000000, 110.000000)">
                <g id="Group-38">
                    <g id="database" fill="url(#linearGradient-1)" fill-rule="nonzero">
                        <path d="M34.191268,0.0190800019 C35.0905084,0.0190800019 35.8194599,0.748031473 35.8194599,1.64727196 L35.8194599,1.64727196 L35.8194599,2.46132024 L38.2617002,2.46132024 C39.1609406,2.46132024 39.8898921,3.19027171 39.8898921,4.0895122 L39.8898921,4.0895122 L39.8898921,4.90356048 L43.1461806,4.90356048 C44.0454211,4.90356048 44.7743726,5.63251195 44.7743726,6.53175244 L44.7743726,6.53175244 L47.2166128,6.53175244 C48.1158533,6.53175244 48.8449956,7.26070391 48.8449956,8.159849 L48.8449956,8.159849 L48.8449956,30.9540594 C48.8449956,31.8532999 48.1160441,32.5822514 47.2168036,32.5822514 L47.2168036,32.5822514 L44.7745634,32.5822514 C44.7745634,33.4814919 44.0456119,34.2104434 43.1463714,34.2104434 L43.1463714,34.2104434 L39.8900829,34.2104434 L39.8900829,35.0244916 C39.8900829,35.9237321 39.1611314,36.6526836 38.261891,36.6526836 L38.261891,36.6526836 L35.8196507,36.6526836 L35.8196507,37.4667319 C35.8196507,38.3659724 35.0906992,39.0949238 34.1914588,39.0949238 L34.1914588,39.0949238 L14.6535368,39.0949238 C13.7542964,39.0949238 13.0253449,38.3659724 13.0253449,37.4667319 L13.0253449,37.4667319 L13.0253449,36.6526836 L10.5831046,36.6526836 C9.68386415,36.6526836 8.95491268,35.9237321 8.95491268,35.0244916 L8.95491268,35.0244916 L8.95491268,34.2104434 L5.69862416,34.2104434 C4.79938367,34.2104434 4.0704322,33.4814919 4.0704322,32.5822514 L4.0704322,32.5822514 L1.62819196,32.5822514 C0.728951472,32.5822514 0,31.8532999 0,30.9540594 L0,30.9540594 L0,8.159849 C0,7.26070391 0.728951472,6.53175244 1.62809656,6.53175244 L1.62809656,6.53175244 L4.0703368,6.53175244 C4.0703368,5.63251195 4.79928827,4.90356048 5.69852876,4.90356048 L5.69852876,4.90356048 L8.95481728,4.90356048 L8.95481728,4.0895122 C8.95481728,3.19027171 9.68376875,2.46132024 10.5830092,2.46132024 L10.5830092,2.46132024 L13.0252495,2.46132024 L13.0252495,1.64727196 C13.0252495,0.748031473 13.754201,0.0190800019 14.6534414,0.0190800019 L14.6534414,0.0190800019 Z M34.1913634,1.64727196 L14.6534414,1.64727196 L14.6534414,37.4668273 L34.1913634,37.4668273 L34.1913634,1.64727196 Z M13.0252495,4.0895122 L10.5830092,4.0895122 L10.5830092,35.0244916 L13.0252495,35.0244916 L13.0252495,4.0895122 Z M38.2617956,4.0895122 L35.8195553,4.0895122 L35.8195553,35.0244916 L38.2617956,35.0244916 L38.2617956,4.0895122 Z M8.95481728,6.53175244 L5.69852876,6.53175244 L5.69852876,32.5822514 L8.95481728,32.5822514 L8.95481728,6.53175244 Z M43.146276,6.53175244 L39.8899875,6.53175244 L39.8899875,32.5822514 L43.146276,32.5822514 L43.146276,6.53175244 Z M4.0704322,8.159849 L1.62819196,8.159849 L1.62819196,30.9541548 L4.0704322,30.9541548 L4.0704322,8.159849 Z M47.2166128,8.159849 L44.7743726,8.159849 L44.7743726,30.9541548 L47.2166128,30.9541548 L47.2166128,8.159849 Z M17.0304192,25.4718721 C18.2879489,26.357375 20.8796648,27.0539747 24.6352192,27.0539747 C28.2563534,27.0539747 30.7955787,26.4068093 32.100155,25.5666075 L32.2400193,25.4724804 L32.2400193,27.9665507 C32.2400193,28.0197843 32.2263306,28.0699759 32.2019953,28.1137796 C31.830881,29.597324 28.6219596,30.7042787 24.6352192,30.7042787 C20.6393531,30.7042787 17.4252604,29.5927611 17.0660097,28.1037412 C17.0510029,28.0761612 17.0401871,28.0462828 17.0346441,28.0148271 L17.0304192,27.9665507 L17.0304192,25.4718721 Z M32.2400193,21.517376 L32.2400193,24.3767808 C31.3742888,25.2805353 28.4698636,26.1140214 24.6352192,26.1140214 C20.9242731,26.1140214 18.0844999,25.3334413 17.1205266,24.463996 L17.0304192,24.3767808 L17.0304192,21.517376 C17.4286065,21.7908446 17.944212,22.0299396 18.5465121,22.2331398 C19.8277688,22.6830398 21.6072921,22.9984869 23.8403655,23.0596295 C24.105621,23.0681469 24.3711806,23.0724055 24.6355234,23.0724055 C24.8989537,23.0724055 25.1636007,23.0678427 25.4282478,23.0596295 C27.6549332,22.9987911 29.4308061,22.6851691 30.7114545,22.2373985 C31.3189259,22.0335899 31.8390942,21.7926698 32.2400193,21.517376 Z M32.2400193,17.5291147 L32.2400193,20.3888237 C31.4375608,21.2262643 28.8838689,22.003779 25.4607963,22.112984 C25.4258142,22.1138966 25.3899196,22.1145049 25.3546333,22.1154175 C25.2554667,22.1181552 25.1563001,22.120893 25.0559168,22.1224139 C24.916901,22.1245433 24.7766685,22.12576 24.6352192,22.12576 C24.49377,22.12576 24.3535374,22.1245433 24.2145217,22.1221097 C24.1138341,22.1205888 24.0149717,22.117851 23.9158051,22.1151133 C23.8805189,22.1142007 23.8446242,22.1138966 23.8096421,22.1126798 C20.5046065,22.0075342 18.0100281,21.279091 17.119643,20.474943 L17.0304192,20.3885195 L17.0304192,17.5291147 C18.5112259,18.5460286 21.6407532,19.08384 24.6352192,19.08384 C27.6296853,19.08384 30.7595168,18.5460286 32.2400193,17.5291147 Z M24.6352192,13 C29.2330813,13 31.8576499,14.2900783 32.1989533,15.5984081 C32.2149741,15.6265965 32.2278854,15.6564073 32.2347128,15.6882912 L32.2400193,15.737728 L32.2400193,16.4391948 C31.3773307,17.3399073 28.4932864,18.171264 24.6352192,18.171264 C20.9016059,18.171264 18.0804735,17.3926781 17.1202078,16.5261184 L17.0304192,16.4391948 L17.0304192,15.737728 C17.0304192,15.6823651 17.0492791,15.6333902 17.0751354,15.5886739 C17.4270856,14.2836902 20.0489164,13 24.6352192,13 Z" id="Combined-Shape"></path>
                    </g>
                    <g id="list"></g>
                </g>
            </g>
        </g>
    </g>
</svg>