<?xml version="1.0" encoding="UTF-8"?>
<svg width="43px" height="44px" viewBox="0 0 43 44" version="1.1" xmlns="http://www.w3.org/2000/svg" xmlns:xlink="http://www.w3.org/1999/xlink">
    <!-- Generator: Sketch 61.2 (89653) - https://sketch.com -->
    <title>DeepLearning</title>
    <desc>Created with Sketch.</desc>
    <g id="Drafts" stroke="none" stroke-width="1" fill="none" fill-rule="evenodd">
        <g id="Artboard" transform="translate(-174.000000, -193.000000)" fill="#222222">
            <g id="DeepLearning" transform="translate(174.000000, 193.000000)">
                <g id="deep-learning">
                    <path d="M3.52000003,6.25277607e-13 C5.46092805,6.25277607e-13 7.04000007,1.57907201 7.04000007,3.52000003 C7.04000007,4.07052804 6.90201607,4.58515204 6.67532806,5.05049605 L6.67532806,5.05049605 L13.1915521,10.0263681 C13.8096641,9.48921609 14.6065921,9.15200009 15.4880001,9.15200009 C17.1881602,9.15200009 18.6095362,10.3635841 18.9368962,11.9680001 L18.9368962,11.9680001 L22.5280002,11.9680001 L22.5280002,9.85600009 C22.5280002,8.69158408 23.4755842,7.74400007 24.6400002,7.74400007 C25.8044162,7.74400007 26.7520003,8.69158408 26.7520003,9.85600009 L26.7520003,9.85600009 L26.7520003,10.5600001 L27.8685443,10.5600001 L36.1102723,2.31827202 C36.2419203,2.18592002 36.4214403,2.11200002 36.6080003,2.11200002 L36.6080003,2.11200002 L38.1455364,2.11200002 C38.4369924,1.29465601 39.2113924,0.704000007 40.1280004,0.704000007 C41.2924164,0.704000007 42.2400004,1.65158402 42.2400004,2.81600003 C42.2400004,3.98041604 41.2924164,4.92800005 40.1280004,4.92800005 C39.2113924,4.92800005 38.4369924,4.33734404 38.1455364,3.52000003 L38.1455364,3.52000003 L36.8994563,3.52000003 L28.6577283,11.7617281 C28.5260803,11.8940801 28.3465603,11.9680001 28.1600003,11.9680001 L28.1600003,11.9680001 L26.7520003,11.9680001 L26.7520003,14.0800001 L29.9805443,14.0800001 L35.4062723,8.65427208 C35.5379203,8.52192008 35.7174403,8.44800008 35.9040003,8.44800008 L35.9040003,8.44800008 L38.1455364,8.44800008 C38.4369924,7.63065607 39.2113924,7.04000007 40.1280004,7.04000007 C41.2924164,7.04000007 42.2400004,7.98758408 42.2400004,9.15200009 C42.2400004,10.3164161 41.2924164,11.2640001 40.1280004,11.2640001 C39.2113924,11.2640001 38.4369924,10.6733441 38.1455364,9.85600009 L38.1455364,9.85600009 L36.1954563,9.85600009 L30.7697283,15.2817281 C30.6380803,15.4140801 30.4585603,15.4880001 30.2720003,15.4880001 L30.2720003,15.4880001 L26.7520003,15.4880001 L26.7520003,17.6000002 L32.7965443,17.6000002 L35.4062723,14.9902721 C35.5379203,14.8579201 35.7174403,14.7840001 35.9040003,14.7840001 L35.9040003,14.7840001 L38.1455364,14.7840001 C38.4369924,13.9666561 39.2113924,13.3760001 40.1280004,13.3760001 C41.2924164,13.3760001 42.2400004,14.3235841 42.2400004,15.4880001 C42.2400004,16.6524162 41.2924164,17.6000002 40.1280004,17.6000002 C39.2113924,17.6000002 38.4369924,17.0093442 38.1455364,16.1920002 L38.1455364,16.1920002 L36.1954563,16.1920002 L33.5857283,18.8017282 C33.4540803,18.9340802 33.2745603,19.0080002 33.0880003,19.0080002 L33.0880003,19.0080002 L26.7520003,19.0080002 L26.7520003,21.1200002 L38.1455364,21.1200002 C38.4369924,20.3026562 39.2113924,19.7120002 40.1280004,19.7120002 C41.2924164,19.7120002 42.2400004,20.6595842 42.2400004,21.8240002 C42.2400004,22.9884162 41.2924164,23.9360002 40.1280004,23.9360002 C39.2113924,23.9360002 38.4369924,23.3453442 38.1455364,22.5280002 L38.1455364,22.5280002 L26.7520003,22.5280002 L26.7520003,24.6400002 L33.0880003,24.6400002 C33.2745603,24.6400002 33.4540803,24.7139202 33.5857283,24.8462722 L33.5857283,24.8462722 L36.1954563,27.4560003 L38.1455364,27.4560003 C38.4369924,26.6386563 39.2113924,26.0480002 40.1280004,26.0480002 C41.2924164,26.0480002 42.2400004,26.9955843 42.2400004,28.1600003 C42.2400004,29.3244163 41.2924164,30.2720003 40.1280004,30.2720003 C39.2113924,30.2720003 38.4369924,29.6813443 38.1455364,28.8640003 L38.1455364,28.8640003 L35.9040003,28.8640003 C35.7174403,28.8640003 35.5379203,28.7900803 35.4062723,28.6577283 L35.4062723,28.6577283 L32.7965443,26.0480002 L26.7520003,26.0480002 L26.7520003,28.1600003 L30.2720003,28.1600003 C30.4585603,28.1600003 30.6380803,28.2339203 30.7697283,28.3662723 L30.7697283,28.3662723 L36.1954563,33.7920003 L38.1455364,33.7920003 C38.4369924,32.9746563 39.2113924,32.3840003 40.1280004,32.3840003 C41.2924164,32.3840003 42.2400004,33.3315843 42.2400004,34.4960003 C42.2400004,35.6604163 41.2924164,36.6080003 40.1280004,36.6080003 C39.2113924,36.6080003 38.4369924,36.0173443 38.1455364,35.2000003 L38.1455364,35.2000003 L35.9040003,35.2000003 C35.7174403,35.2000003 35.5379203,35.1260803 35.4062723,34.9937283 L35.4062723,34.9937283 L29.9805443,29.5680003 L26.7520003,29.5680003 L26.7520003,31.6800003 L28.1600003,31.6800003 C28.3465603,31.6800003 28.5260803,31.7539203 28.6577283,31.8862723 L28.6577283,31.8862723 L36.8994563,40.1280004 L38.1455364,40.1280004 C38.4369924,39.3106564 39.2113924,38.7200004 40.1280004,38.7200004 C41.2924164,38.7200004 42.2400004,39.6675844 42.2400004,40.8320004 C42.2400004,41.9964164 41.2924164,42.9440004 40.1280004,42.9440004 C39.2113924,42.9440004 38.4369924,42.3533444 38.1455364,41.5360004 L38.1455364,41.5360004 L36.6080003,41.5360004 C36.4214403,41.5360004 36.2419203,41.4620804 36.1102723,41.3297284 L36.1102723,41.3297284 L27.8685443,33.0880003 L26.7520003,33.0880003 C26.7520003,34.2524163 25.8044162,35.2000003 24.6400002,35.2000003 C23.4755842,35.2000003 22.5280002,34.2524163 22.5280002,33.0880003 L22.5280002,33.0880003 L22.5280002,31.6800003 L18.9368962,31.6800003 C18.6095362,33.2844163 17.1874562,34.4960003 15.4880001,34.4960003 C14.6065921,34.4960003 13.8096641,34.1587843 13.1915521,33.6223363 L13.1915521,33.6223363 L6.67532806,38.5982084 C6.90201607,39.0628484 7.04000007,39.5774724 7.04000007,40.1280004 C7.04000007,42.0689284 5.46092805,43.6480004 3.52000003,43.6480004 C1.57907201,43.6480004 1.39884833e-11,42.0689284 1.39884833e-11,40.1280004 C1.39884833e-11,38.1870724 1.57907201,36.6080003 3.52000003,36.6080003 C4.40140804,36.6080003 5.19833605,36.9452164 5.81644806,37.4816644 L5.81644806,37.4816644 L12.3326721,32.5057923 C12.2052481,32.2446083 12.0989441,31.9721603 12.0391041,31.6800003 L12.0391041,31.6800003 L6.96889607,31.6800003 C6.64153606,33.2844163 5.21945605,34.4960003 3.52000003,34.4960003 C1.57907201,34.4960003 1.39884833e-11,32.9169283 1.39884833e-11,30.9760003 C1.39884833e-11,29.0350723 1.57907201,27.4560003 3.52000003,27.4560003 C4.40140804,27.4560003 5.19833605,27.7932163 5.81644806,28.3303683 L5.81644806,28.3303683 L8.34380808,26.4000003 L5.81644806,24.4696322 C5.19833605,25.0067842 4.40140804,25.3440002 3.52000003,25.3440002 C1.57907201,25.3440002 1.39884833e-11,23.7649282 1.39884833e-11,21.8240002 C1.39884833e-11,19.8830722 1.57907201,18.3040002 3.52000003,18.3040002 C4.40140804,18.3040002 5.19833605,18.6412162 5.81644806,19.1783682 L5.81644806,19.1783682 L8.34380808,17.2480002 L5.81644806,15.3176321 C5.19833605,15.8547842 4.40140804,16.1920002 3.52000003,16.1920002 C1.57907201,16.1920002 1.39884833e-11,14.6129281 1.39884833e-11,12.6720001 C1.39884833e-11,10.7310721 1.57907201,9.15200009 3.52000003,9.15200009 C5.21945605,9.15200009 6.64153606,10.3635841 6.96889607,11.9672961 L6.96889607,11.9672961 L12.0391041,11.9672961 C12.0989441,11.6751361 12.2052481,11.4026881 12.3326721,11.1415041 L12.3326721,11.1415041 L5.81644806,6.16563206 C5.19833605,6.70278406 4.40140804,7.04000007 3.52000003,7.04000007 C1.57907201,7.04000007 1.39884833e-11,5.46092805 1.39884833e-11,3.52000003 C1.39884833e-11,1.57907201 1.57907201,6.25277607e-13 3.52000003,6.25277607e-13 Z M3.52000003,38.0160004 C2.35558402,38.0160004 1.40800001,38.9635844 1.40800001,40.1280004 C1.40800001,41.2924164 2.35558402,42.2400004 3.52000003,42.2400004 C4.68441604,42.2400004 5.63200005,41.2924164 5.63200005,40.1280004 C5.63200005,38.9635844 4.68441604,38.0160004 3.52000003,38.0160004 Z M40.1280004,40.1280004 C39.7400964,40.1280004 39.4240004,40.4433924 39.4240004,40.8320004 C39.4240004,41.2206084 39.7400964,41.5360004 40.1280004,41.5360004 C40.5159044,41.5360004 40.8320004,41.2206084 40.8320004,40.8320004 C40.8320004,40.4433924 40.5159044,40.1280004 40.1280004,40.1280004 Z M40.1280004,33.7920003 C39.7400964,33.7920003 39.4240004,34.1073923 39.4240004,34.4960003 C39.4240004,34.8846083 39.7400964,35.2000003 40.1280004,35.2000003 C40.5159044,35.2000003 40.8320004,34.8846083 40.8320004,34.4960003 C40.8320004,34.1073923 40.5159044,33.7920003 40.1280004,33.7920003 Z M24.6400002,9.15200009 C24.2520962,9.15200009 23.9360002,9.46739209 23.9360002,9.85600009 L23.9360002,9.85600009 L23.9360002,33.0880003 C23.9360002,33.4766083 24.2520962,33.7920003 24.6400002,33.7920003 C25.0279042,33.7920003 25.3440002,33.4766083 25.3440002,33.0880003 L25.3440002,33.0880003 L25.3440002,9.85600009 C25.3440002,9.46739209 25.0279042,9.15200009 24.6400002,9.15200009 Z M15.4880001,28.8640003 C14.3235841,28.8640003 13.3760001,29.8115843 13.3760001,30.9760003 C13.3760001,32.1404163 14.3235841,33.0880003 15.4880001,33.0880003 C16.6524162,33.0880003 17.6000002,32.1404163 17.6000002,30.9760003 C17.6000002,29.8115843 16.6524162,28.8640003 15.4880001,28.8640003 Z M3.52000003,28.8640003 C2.35558402,28.8640003 1.40800001,29.8115843 1.40800001,30.9760003 C1.40800001,32.1404163 2.35558402,33.0880003 3.52000003,33.0880003 C4.68441604,33.0880003 5.63200005,32.1404163 5.63200005,30.9760003 C5.63200005,29.8115843 4.68441604,28.8640003 3.52000003,28.8640003 Z M9.50400009,27.2863363 L6.67532806,29.4462083 C6.80275206,29.7073923 6.90905607,29.9798403 6.96889607,30.2720003 L6.96889607,30.2720003 L12.0391041,30.2720003 C12.0989441,29.9798403 12.2052481,29.7073923 12.3326721,29.4462083 L12.3326721,29.4462083 L9.50400009,27.2863363 Z M22.5280002,22.5280002 L18.9368962,22.5280002 C18.6095362,24.1324162 17.1874562,25.3440002 15.4880001,25.3440002 C14.6065921,25.3440002 13.8096641,25.0067842 13.1915521,24.4696322 L13.1915521,24.4696322 L10.6641921,26.4000003 L13.1915521,28.3303683 C13.8096641,27.7932163 14.6065921,27.4560003 15.4880001,27.4560003 C17.1881602,27.4560003 18.6095362,28.6675843 18.9368962,30.2720003 L18.9368962,30.2720003 L22.5280002,30.2720003 L22.5280002,22.5280002 Z M40.1280004,27.4560003 C39.7400964,27.4560003 39.4240004,27.7713923 39.4240004,28.1600003 C39.4240004,28.5486083 39.7400964,28.8640003 40.1280004,28.8640003 C40.5159044,28.8640003 40.8320004,28.5486083 40.8320004,28.1600003 C40.8320004,27.7713923 40.5159044,27.4560003 40.1280004,27.4560003 Z M21.1200002,26.7520003 L21.1200002,28.1600003 L19.7120002,28.1600003 L19.7120002,26.7520003 L21.1200002,26.7520003 Z M12.0391041,22.5280002 L6.96889607,22.5280002 C6.90905607,22.8201602 6.80275206,23.0926082 6.67532806,23.3537922 L6.67532806,23.3537922 L9.50400009,25.5143682 L12.3326721,23.3537922 C12.2052481,23.0926082 12.0989441,22.8201602 12.0391041,22.5280002 L12.0391041,22.5280002 Z M21.1200002,23.9360002 L21.1200002,25.3440002 L19.7120002,25.3440002 L19.7120002,23.9360002 L21.1200002,23.9360002 Z M3.52000003,19.7120002 C2.35558402,19.7120002 1.40800001,20.6595842 1.40800001,21.8240002 C1.40800001,22.9884162 2.35558402,23.9360002 3.52000003,23.9360002 C4.68441604,23.9360002 5.63200005,22.9884162 5.63200005,21.8240002 C5.63200005,20.6595842 4.68441604,19.7120002 3.52000003,19.7120002 Z M15.4880001,19.7120002 C14.3235841,19.7120002 13.3760001,20.6595842 13.3760001,21.8240002 C13.3760001,22.9884162 14.3235841,23.9360002 15.4880001,23.9360002 C16.6524162,23.9360002 17.6000002,22.9884162 17.6000002,21.8240002 C17.6000002,20.6595842 16.6524162,19.7120002 15.4880001,19.7120002 Z M40.1280004,21.1200002 C39.7400964,21.1200002 39.4240004,21.4353922 39.4240004,21.8240002 C39.4240004,22.2126082 39.7400964,22.5280002 40.1280004,22.5280002 C40.5159044,22.5280002 40.8320004,22.2126082 40.8320004,21.8240002 C40.8320004,21.4353922 40.5159044,21.1200002 40.1280004,21.1200002 Z M9.50400009,18.1343362 L6.67532806,20.2942082 C6.80275206,20.5553922 6.90905607,20.8278402 6.96889607,21.1200002 L6.96889607,21.1200002 L12.0391041,21.1200002 C12.0989441,20.8278402 12.2052481,20.5553922 12.3326721,20.2942082 L12.3326721,20.2942082 L9.50400009,18.1343362 Z M22.5280002,13.3760001 L18.9368962,13.3760001 C18.6095362,14.9804161 17.1874562,16.1920002 15.4880001,16.1920002 C14.6065921,16.1920002 13.8096641,15.8547842 13.1915521,15.3176321 L13.1915521,15.3176321 L10.6641921,17.2480002 L13.1915521,19.1783682 C13.8096641,18.6412162 14.6065921,18.3040002 15.4880001,18.3040002 C17.1881602,18.3040002 18.6095362,19.5155842 18.9368962,21.1200002 L18.9368962,21.1200002 L22.5280002,21.1200002 L22.5280002,13.3760001 Z M21.1200002,18.3040002 L21.1200002,19.7120002 L19.7120002,19.7120002 L19.7120002,18.3040002 L21.1200002,18.3040002 Z M21.1200002,15.4880001 L21.1200002,16.8960002 L19.7120002,16.8960002 L19.7120002,15.4880001 L21.1200002,15.4880001 Z M12.0391041,13.3760001 L6.96889607,13.3760001 C6.90905607,13.6681601 6.80275206,13.9406081 6.67532806,14.2017921 L6.67532806,14.2017921 L9.50400009,16.3623682 L12.3326721,14.2017921 C12.2052481,13.9406081 12.0989441,13.6681601 12.0391041,13.3760001 L12.0391041,13.3760001 Z M40.1280004,14.7840001 C39.7400964,14.7840001 39.4240004,15.0993921 39.4240004,15.4880001 C39.4240004,15.8766082 39.7400964,16.1920002 40.1280004,16.1920002 C40.5159044,16.1920002 40.8320004,15.8766082 40.8320004,15.4880001 C40.8320004,15.0993921 40.5159044,14.7840001 40.1280004,14.7840001 Z M3.52000003,10.5600001 C2.35558402,10.5600001 1.40800001,11.5075841 1.40800001,12.6720001 C1.40800001,13.8364161 2.35558402,14.7840001 3.52000003,14.7840001 C4.68441604,14.7840001 5.63200005,13.8364161 5.63200005,12.6720001 C5.63200005,11.5075841 4.68441604,10.5600001 3.52000003,10.5600001 Z M15.4880001,10.5600001 C14.3235841,10.5600001 13.3760001,11.5075841 13.3760001,12.6720001 C13.3760001,13.8364161 14.3235841,14.7840001 15.4880001,14.7840001 C16.6524162,14.7840001 17.6000002,13.8364161 17.6000002,12.6720001 C17.6000002,11.5075841 16.6524162,10.5600001 15.4880001,10.5600001 Z M40.1280004,8.44800008 C39.7400964,8.44800008 39.4240004,8.76339208 39.4240004,9.15200009 C39.4240004,9.54060809 39.7400964,9.85600009 40.1280004,9.85600009 C40.5159044,9.85600009 40.8320004,9.54060809 40.8320004,9.15200009 C40.8320004,8.76339208 40.5159044,8.44800008 40.1280004,8.44800008 Z M3.52000003,1.40800001 C2.35558402,1.40800001 1.40800001,2.35558402 1.40800001,3.52000003 C1.40800001,4.68441604 2.35558402,5.63200005 3.52000003,5.63200005 C4.68441604,5.63200005 5.63200005,4.68441604 5.63200005,3.52000003 C5.63200005,2.35558402 4.68441604,1.40800001 3.52000003,1.40800001 Z M40.1280004,2.11200002 C39.7400964,2.11200002 39.4240004,2.42739202 39.4240004,2.81600003 C39.4240004,3.20460803 39.7400964,3.52000003 40.1280004,3.52000003 C40.5159044,3.52000003 40.8320004,3.20460803 40.8320004,2.81600003 C40.8320004,2.42739202 40.5159044,2.11200002 40.1280004,2.11200002 Z" id="Combined-Shape" fill-rule="nonzero"></path>
                </g>
            </g>
        </g>
    </g>
</svg>