<?xml version="1.0" encoding="UTF-8"?>
<svg width="50px" height="43px" viewBox="0 0 50 43" version="1.1" xmlns="http://www.w3.org/2000/svg" xmlns:xlink="http://www.w3.org/1999/xlink">
    <!-- Generator: Sketch 61.2 (89653) - https://sketch.com -->
    <title>DesignTesting</title>
    <desc>Created with Sketch.</desc>
    <g id="Drafts" stroke="none" stroke-width="1" fill="none" fill-rule="evenodd">
        <g id="Artboard" transform="translate(-594.000000, -427.000000)">
            <g id="DesignTesting" transform="translate(594.000000, 427.000000)">
                <g id="theme">
                    <path d="M34.846186,19.0141357 C39.7178905,19.0141357 43.680985,22.9772302 43.680985,27.8489347 C43.680985,30.1440191 42.8014317,32.2368848 41.3615558,33.8090864 L41.3615558,33.8090864 L42.5226447,34.9697826 C43.2239314,34.5468902 44.1482477,34.632097 44.7529406,35.2367899 L44.7529406,35.2367899 L48.6398595,39.1241014 C48.984613,39.4684623 49.1746594,39.9266938 49.1742673,40.4139821 C49.1742673,40.9012703 48.9842204,41.3595019 48.6398595,41.7038627 C48.2841116,42.0596106 47.8168489,42.2374846 47.3495862,42.2374846 C46.8827162,42.2374846 46.4154535,42.0600033 46.0597056,41.7042554 L46.0597056,41.7042554 L42.1727867,37.8173365 C41.5461049,37.1906548 41.4734633,36.2180416 41.9509351,35.5089017 L41.9509351,35.5089017 L40.8063378,34.3643044 C39.3687222,35.6802341 37.4966422,36.5285566 35.4324816,36.6644883 L35.4321016,36.7444016 C35.4321016,38.1938371 34.2569369,39.3690018 32.8075015,39.3690018 L32.8075015,39.3690018 L2.62460012,39.3690018 C1.1751647,39.3690018 -4.00319777e-11,38.1938371 -4.00319777e-11,36.7444016 L-4.00319777e-11,36.7444016 L-4.00319777e-11,34.7759515 C-4.00319777e-11,34.4134287 0.293627159,34.1198015 0.656150029,34.1198015 L0.656150029,34.1198015 L3.93690018,34.1198015 L3.93690018,20.9968009 L5.24920023,20.9968009 L5.24920023,34.1198015 L28.62855,34.1197638 C28.2243714,33.7189814 27.8586057,33.2795182 27.5373337,32.8074547 L26.2460012,32.8075015 C25.8834783,32.8075015 25.5898511,32.5138743 25.5898511,32.1513514 L25.5898511,32.1513514 L25.5898511,24.2775511 C25.5898511,23.9150282 25.8834783,23.6214011 26.2460012,23.6214011 L26.2460012,23.6214011 L27.0901673,23.6210827 C28.5912308,20.8782339 31.5050196,19.0141357 34.846186,19.0141357 Z M31.4951305,36.0237158 L31.4952014,36.7444016 C31.4952014,37.4692834 32.0826197,38.0567017 32.8075015,38.0567017 C33.5323832,38.0567017 34.1198015,37.4692834 34.1198015,36.7444016 L34.1198015,36.7444016 L34.1194306,36.6541314 C33.1977226,36.5787425 32.3156227,36.3612708 31.4951305,36.0237158 Z M30.1829013,35.4321016 L1.31230006,35.4321016 L1.31230006,36.7444016 C1.31230006,37.4692834 1.89971836,38.0567017 2.62460012,38.0567017 L2.62460012,38.0567017 L30.5354179,38.0567017 C30.303633,37.6580905 30.1825733,37.2055111 30.1829013,36.7444016 L30.1829013,36.7444016 L30.1829013,35.4321016 Z M34.8465787,20.9774243 C32.6506981,20.9774243 30.6919704,22.0129566 29.4331191,23.6212977 L38.7128517,23.6214011 C39.0753746,23.6214011 39.3690018,23.9150282 39.3690018,24.2775511 L39.3690018,24.2775511 L39.3690018,32.1513514 C39.3690018,32.5138743 39.0753746,32.8075015 38.7128517,32.8075015 L38.7128517,32.8075015 L30.0944858,32.8077392 C31.1648263,33.833881 32.5655661,34.5179422 34.1189759,34.6821934 L34.1198015,34.1198015 L35.4321016,34.1198015 L35.4324904,34.6956932 C38.9480911,34.3974094 41.718089,31.4403581 41.718089,27.8489347 C41.718089,24.0601802 38.6353332,20.9774243 34.8465787,20.9774243 Z M38.0567017,24.9337011 L28.6249452,24.9330151 C28.2081667,25.8186599 27.9750684,26.8071057 27.9750684,27.8489347 C27.9750684,28.472104 28.0584669,29.0761739 28.2146882,29.6505683 L28.2144513,28.8706013 L29.5267513,28.8706013 L29.5267513,30.1829013 L28.3832285,30.1830046 C28.550746,30.6454163 28.766561,31.0848957 29.0245466,31.495316 L38.0567017,31.4952014 L38.0567017,24.9337011 Z M36.7444016,28.8706013 L36.7444016,30.1829013 L30.8390514,30.1829013 L30.8390514,28.8706013 L36.7444016,28.8706013 Z M23.6214011,20.9968009 C23.9839239,20.9968009 24.2775511,21.2904281 24.2775511,21.652951 L24.2775511,21.652951 L24.2775511,29.5267513 C24.2775511,29.8892742 23.9839239,30.1829013 23.6214011,30.1829013 L23.6214011,30.1829013 L7.21765032,30.1829013 C6.85512745,30.1829013 6.56150029,29.8892742 6.56150029,29.5267513 L6.56150029,29.5267513 L6.56150029,21.652951 C6.56150029,21.2904281 6.85512745,20.9968009 7.21765032,20.9968009 L7.21765032,20.9968009 Z M22.965251,22.309101 L7.87380035,22.309101 L7.87380035,28.8706013 L22.965251,28.8706013 L22.965251,22.309101 Z M17.0599008,26.2460012 L17.0599008,27.5583012 L9.18610041,27.5583012 L9.18610041,26.2460012 L17.0599008,26.2460012 Z M21.652951,26.2460012 L21.652951,27.5583012 L18.3722008,27.5583012 L18.3722008,26.2460012 L21.652951,26.2460012 Z M29.5267513,26.2460012 L29.5267513,27.5583012 L28.2144513,27.5583012 L28.2144513,26.2460012 L29.5267513,26.2460012 Z M36.7444016,26.2460012 L36.7444016,27.5583012 L30.8390514,27.5583012 L30.8390514,26.2460012 L36.7444016,26.2460012 Z M11.8107005,23.6214011 L11.8107005,24.9337011 L9.18610041,24.9337011 L9.18610041,23.6214011 L11.8107005,23.6214011 Z M19.0283508,23.6214011 L19.0283508,24.9337011 L13.1230006,24.9337011 L13.1230006,23.6214011 L19.0283508,23.6214011 Z M21.652951,23.6214011 L21.652951,24.9337011 L20.3406509,24.9337011 L20.3406509,23.6214011 L21.652951,23.6214011 Z M13.7791506,10.4984005 C14.1416735,10.4984005 14.4353006,10.7920276 14.4353006,11.1545505 L14.4353006,11.1545505 L14.4353006,19.0283508 C14.4353006,19.3908737 14.1416735,19.6845009 13.7791506,19.6845009 L13.7791506,19.6845009 L0.656150029,19.6845009 C0.293627159,19.6845009 -4.14388523e-11,19.3908737 -4.14388523e-11,19.0283508 L-4.14388523e-11,19.0283508 L-4.14388523e-11,11.1545505 C-4.14388523e-11,10.7920276 0.293627159,10.4984005 0.656150029,10.4984005 L0.656150029,10.4984005 Z M13.1230006,11.8107005 L1.31230006,11.8107005 L1.31230006,18.3722008 L13.1230006,18.3722008 L13.1230006,11.8107005 Z M38.7128517,3.93690018 C39.0753746,3.93690018 39.3690018,4.23052733 39.3690018,4.5930502 L39.3690018,4.5930502 L39.3690018,17.7160508 C39.3690018,18.0785737 39.0753746,18.3722008 38.7128517,18.3722008 L38.7128517,18.3722008 L16.4037507,18.3722008 C16.0412279,18.3722008 15.7476007,18.0785737 15.7476007,17.7160508 L15.7476007,17.7160508 L15.7476007,4.5930502 C15.7476007,4.23052733 16.0412279,3.93690018 16.4037507,3.93690018 L16.4037507,3.93690018 Z M7.25144207,12.915001 L8.49681482,13.330344 L7.18320247,17.2674082 L5.93848582,16.8523933 L7.25144207,12.915001 Z M22.952128,11.9274952 L17.0599008,15.4628316 L17.0599008,17.0599008 L38.0567017,17.0599008 L38.0567017,15.4720177 L34.1030697,13.2135493 L29.3527075,15.6741119 C29.1443799,15.7820486 28.8938946,15.7697458 28.6965575,15.6426167 L28.6965575,15.6426167 L22.952128,11.9274952 Z M4.12915213,13.3152525 L5.05694828,14.2430487 L4.20854629,15.0914507 L5.05694828,15.9398527 L4.12915213,16.8676488 L2.81685208,15.5553487 C2.56078954,15.2989581 2.56078954,14.8839432 2.81685208,14.6275526 L2.81685208,14.6275526 L4.12915213,13.3152525 Z M10.3061485,13.3152525 L11.6184486,14.6275526 C11.8745111,14.8839432 11.8745111,15.2989581 11.6184486,15.5553487 L11.6184486,15.5553487 L10.3061485,16.8676488 L9.37835237,15.9398527 L10.2267544,15.0914507 L9.37835237,14.2430487 L10.3061485,13.3152525 Z M38.0567017,5.24920023 L17.0599008,5.24920023 L17.0599008,13.9326897 L22.6297943,10.5922299 C22.8445194,10.4631324 23.113869,10.4675614 23.3241651,10.6033845 L23.3241651,10.6033845 L29.0917238,14.3337614 L33.8204331,11.8841893 C34.0182623,11.781994 34.2546404,11.786423 34.4478765,11.8973123 L34.4478765,11.8973123 L38.0567017,13.9609042 L38.0567017,5.24920023 Z M31.1671264,6.56150029 C32.4354644,6.56150029 33.4636515,7.58968739 33.4636515,8.85802539 C33.4636515,10.1263634 32.4354644,11.1545505 31.1671264,11.1545505 C29.8987884,11.1545505 28.8706013,10.1263634 28.8706013,8.85802539 C28.8706013,7.58968739 29.8987884,6.56150029 31.1671264,6.56150029 Z M31.1671264,7.87380035 C30.6235061,7.87380035 30.1829013,8.31440512 30.1829013,8.85802539 C30.1829013,9.40164567 30.6235061,9.84225044 31.1671264,9.84225044 C31.7107467,9.84225044 32.1513514,9.40164567 32.1513514,8.85802539 C32.1513514,8.31440512 31.7107467,7.87380035 31.1671264,7.87380035 Z M32.8075015,-1.82254212e-12 C34.2569369,-1.82254212e-12 35.4321016,1.1751647 35.4321016,2.62460012 L35.4321016,2.62460012 L34.1198015,2.62460012 C34.1198015,1.89971836 33.5323832,1.31230006 32.8075015,1.31230006 L32.8075015,1.31230006 L6.56150029,1.31230006 C5.83661854,1.31230006 5.24920023,1.89971836 5.24920023,2.62460012 L5.24920023,2.62460012 L5.24920023,9.18610041 L3.93690018,9.18610041 L3.93690018,2.62460012 C3.93690018,1.1751647 5.11206488,-1.82254212e-12 6.56150029,-1.82254212e-12 L6.56150029,-1.82254212e-12 Z M14.4353006,5.24920023 L14.4353006,6.56150029 L6.56150029,6.56150029 L6.56150029,5.24920023 L14.4353006,5.24920023 Z M7.87380035,2.62460012 L7.87380035,3.93690018 L6.56150029,3.93690018 L6.56150029,2.62460012 L7.87380035,2.62460012 Z M10.4984005,2.62460012 L10.4984005,3.93690018 L9.18610041,3.93690018 L9.18610041,2.62460012 L10.4984005,2.62460012 Z M13.1230006,2.62460012 L13.1230006,3.93690018 L11.8107005,3.93690018 L11.8107005,2.62460012 L13.1230006,2.62460012 Z" id="Combined-Shape" fill="#222222" fill-rule="nonzero"></path>
                    <polygon id="Path" fill="#000000" fill-rule="nonzero" points="34.1198015 19.6845009 35.4321016 19.6845009 35.4321016 22.309101 34.1198015 22.309101"></polygon>
                </g>
            </g>
        </g>
    </g>
</svg>