<?xml version="1.0" encoding="UTF-8"?>
<svg width="42px" height="44px" viewBox="0 0 42 44" version="1.1" xmlns="http://www.w3.org/2000/svg" xmlns:xlink="http://www.w3.org/1999/xlink">
    <!-- Generator: Sketch 61.2 (89653) - https://sketch.com -->
    <title>DigitalMarketing</title>
    <desc>Created with Sketch.</desc>
    <defs>
        <linearGradient x1="50%" y1="0%" x2="50%" y2="100%" id="linearGradient-1">
            <stop stop-color="#3429B7" offset="0%"></stop>
            <stop stop-color="#C144CE" offset="100%"></stop>
        </linearGradient>
    </defs>
    <g id="Drafts" stroke="none" stroke-width="1" fill="none" fill-rule="evenodd">
        <g id="Solutions-Icons" transform="translate(-733.000000, -108.000000)" fill="url(#linearGradient-1)">
            <g id="DigitalMarketing" transform="translate(733.000000, 108.000000)">
                <g id="social-media-2-copy">
                    <path d="M30.3494052,1.24702381e-12 C31.1742104,1.24702381e-12 31.1742104,1.27889999 30.3494052,1.27889999 L30.3494052,1.27889999 L21.3889203,1.27889999 C19.4508752,1.27889999 17.874162,2.84990074 17.874162,4.78086921 L17.874162,4.78086921 L17.874162,12.1801583 C18.9140783,12.8829564 19.5988866,14.070884 19.5988866,15.4154342 L19.5988866,15.4154342 L19.5988866,22.5936441 C20.1390939,22.9134543 20.7516018,23.0816723 21.3889203,23.0816723 L21.3889203,23.0816723 L29.171453,23.0816723 C29.5246852,23.0816723 29.810903,23.3679754 29.810903,23.7211223 L29.810903,23.7211223 L29.810903,26.2005683 L33.7163225,23.2132285 C33.8279279,23.1278832 33.9644291,23.0816723 34.1048524,23.0816723 L34.1048524,23.0816723 L36.2331977,23.0816723 C38.1712428,23.0816723 39.7478707,21.5106715 39.7478707,19.5796178 L39.7478707,19.5796178 L39.7478707,4.78086921 C39.7478707,2.84990074 38.1711575,1.27889999 36.2331977,1.27889999 L36.2331977,1.27889999 L34.3566251,1.27889999 C33.5317346,1.27889999 33.5317346,1.24702381e-12 34.3566251,1.24702381e-12 L34.3566251,1.24702381e-12 L36.2331977,1.24702381e-12 C38.876343,1.24702381e-12 41.0268559,2.14471528 41.0268559,4.78086921 L41.0268559,4.78086921 L41.0268559,19.5797031 C41.0268559,22.2159423 38.8764282,24.3606575 36.233283,24.3606575 L36.233283,24.3606575 L34.321498,24.3606575 L29.5600681,28.0027089 C29.1522695,28.3145048 28.5320883,28.0064604 28.5320883,27.4948151 L28.5320883,27.4948151 L28.5320883,24.3606575 L21.3890055,24.3606575 C20.7672896,24.3606575 20.1627962,24.2428282 19.5989718,24.0161219 C19.5989718,24.0161219 19.5964993,27.2458559 19.5916395,27.3257445 L19.5916395,27.3257445 L25.296386,27.3257445 C26.9308202,27.3257445 28.2606204,28.6522196 28.2606204,30.2828171 L28.2606204,30.2828171 L28.2606204,33.4219198 C28.2606204,34.246725 26.9817204,34.246725 26.9817204,33.4219198 L26.9817204,33.4219198 L26.9817204,30.2827318 C26.9817204,29.3574051 26.2256348,28.6045593 25.296386,28.6045593 L25.296386,28.6045593 L16.9892485,28.6045593 C16.0599145,28.6045593 15.3039141,29.3573198 15.3039141,30.2827318 L15.3039141,30.2827318 L15.3039141,38.5643766 C15.3039141,39.4897034 16.0599998,40.2425492 16.9892485,40.2425492 L16.9892485,40.2425492 L21.55279,40.2425492 C21.9060222,40.2425492 22.19224,40.5288523 22.19224,40.8819992 L22.19224,40.8819992 L22.19224,41.7120053 L23.9228474,40.3758958 C24.0347086,40.2895274 24.1721477,40.2426344 24.313594,40.2426344 L24.313594,40.2426344 L25.296386,40.2426344 C26.22572,40.2426344 26.9817204,39.4898739 26.9817204,38.5644619 L26.9817204,38.5644619 L26.9817204,37.4291397 C26.9817204,36.6043345 28.2606204,36.6043345 28.2606204,37.4291397 L28.2606204,37.4291397 L28.2606204,38.5644619 C28.2606204,40.1949741 26.9308202,41.5215344 25.296386,41.5215344 L25.296386,41.5215344 L24.5317744,41.5215344 L21.9436218,43.5198583 C21.5362495,43.8344677 20.9134252,43.5264233 20.9134252,43.0136697 L20.9134252,43.0136697 L20.9134252,41.5215344 L16.9893338,41.5215344 C15.3548996,41.5215344 14.0250994,40.1950594 14.0250994,38.5644619 L14.0250994,38.5644619 L14.0250994,31.3706494 L10.7992873,33.8613498 C10.3918298,34.1757887 9.76900547,33.8680853 9.76900547,33.3551612 L9.76900547,33.3551612 L9.76900547,30.9909014 L3.97763475,30.9909014 C1.81876631,30.9909014 0.0623250596,29.2389789 0.0623250596,27.0855671 L0.0623250596,27.0855671 L0.0623250596,20.6329198 C0.0623250596,19.8081146 1.34122505,19.8081146 1.34122505,20.6329198 L1.34122505,20.6329198 L1.34122505,27.0854819 C1.34122505,28.5337082 2.5238665,29.7119161 3.97763475,29.7119161 L3.97763475,29.7119161 L10.4083702,29.7119161 C10.7616024,29.7119161 11.0478202,29.9982192 11.0478202,30.3513661 L11.0478202,30.3513661 L11.0478202,32.0534968 L13.9078669,29.8451775 C13.9596197,29.8052758 14.015465,29.7746675 14.0736123,29.7527557 C14.3247883,28.3743573 15.5361623,27.325574 16.9892485,27.325574 L16.9892485,27.325574 L18.3079649,27.325574 C18.315212,27.2459412 18.3200718,27.165882 18.3200718,27.0854819 L18.3200718,27.0854819 L18.3200718,23.0175568 C18.3127395,22.961541 18.3123984,22.9046725 18.3200718,22.8482304 L18.3200718,22.8482304 L18.3200718,15.4154342 C18.3200718,13.9672078 17.1373451,12.7889999 15.6835769,12.7889999 L15.6835769,12.7889999 L3.97763475,12.7889999 C2.5238665,12.7889999 1.34122505,13.9672078 1.34122505,15.4154342 L1.34122505,15.4154342 L1.34122505,16.7962199 C1.34122505,17.6210251 0.0623250596,17.6210251 0.0623250596,16.7962199 L0.0623250596,16.7962199 L0.0623250596,15.4154342 C0.0623250596,13.2620224 1.81876631,11.5100999 3.97763475,11.5100999 L3.97763475,11.5100999 L15.6834916,11.5100999 C15.9974189,11.5100999 16.3024792,11.5482111 16.5952621,11.6181243 L16.5952621,11.6181243 L16.5952621,4.78086921 C16.5952621,2.14471528 18.7456898,1.24702381e-12 21.3889203,1.24702381e-12 L21.3889203,1.24702381e-12 Z M19.2427556,31.4786739 C19.9318269,31.311138 20.6187667,31.4788444 21.1351012,31.9039507 C21.6267104,31.5006709 22.2927615,31.3388475 22.9797866,31.4912923 C23.8942853,31.6941259 24.8169691,32.5111724 24.8169691,33.8792544 C24.8169691,35.6506161 23.4679853,36.7287288 21.4423783,37.8025785 C21.3486775,37.8522851 21.2457687,37.8770958 21.1428599,37.8770958 C21.0399511,37.8770958 20.9370423,37.8522851 20.8433415,37.8025785 C19.6822709,37.1870013 18.9328355,36.6701552 18.4135168,36.1266227 C17.777733,35.4612537 17.4686655,34.726142 17.4686655,33.8792544 C17.4686655,32.5185901 18.3597177,31.6931027 19.2427556,31.4786739 Z M19.7696624,32.6944814 C19.6914789,32.6944814 19.615427,32.7042011 19.5444054,32.7214236 C19.1591155,32.8150391 18.7474802,33.1683565 18.7474802,33.8792544 C18.7474802,34.8345927 19.3813031,35.5411423 21.1427746,36.5108895 C22.9042462,35.5412276 23.5379838,34.8346779 23.5379838,33.8792544 C23.5379838,33.1757741 23.1065682,32.8293628 22.7026063,32.739925 C22.3642947,32.664811 21.9291276,32.7428239 21.7222016,33.1863464 C21.6191223,33.4073403 21.3992367,33.5504066 21.1554784,33.5552664 C20.9127432,33.5602967 20.6864631,33.425927 20.5745167,33.2091961 C20.3780777,32.8283396 20.0594611,32.6944814 19.7696624,32.6944814 Z M11.9695926,16.4978892 L12.0640341,16.5065064 C12.4124065,16.5641422 12.6482356,16.893331 12.5905999,17.2417034 L12.5905999,17.2417034 L12.2384761,19.3714129 L14.1234042,19.3714129 C14.4766363,19.3714129 14.7628542,19.657716 14.7628542,20.0108629 C14.7628542,20.3640098 14.4766363,20.6503129 14.1234042,20.6503129 L14.1234042,20.6503129 L12.0270313,20.6503129 L11.7691198,22.2102298 L14.1234042,22.2102298 C14.4766363,22.2102298 14.7628542,22.4965329 14.7628542,22.8496798 C14.7628542,23.2028268 14.4766363,23.4891298 14.1234042,23.4891298 L14.1234042,23.4891298 L11.557675,23.4891298 L11.1711062,25.8273853 C11.1192681,26.1405453 10.8482265,26.3626476 10.5409495,26.3626476 C10.5063339,26.3626476 10.4712921,26.359834 10.4359092,26.3539511 C10.0875368,26.2963153 9.85170767,25.9671265 9.90934343,25.6187541 L9.90934343,25.6187541 L10.2614672,23.4890446 L8.71885806,23.4890446 L8.33228922,25.8273001 C8.28045114,26.14046 8.0094096,26.3626476 7.70213256,26.3626476 C7.667517,26.3626476 7.63247514,26.3597487 7.59709224,26.3538658 C7.24871989,26.29623 7.01289073,25.9670412 7.07052649,25.6186688 L7.07052649,25.6186688 L7.42265029,23.4889593 L5.53772222,23.4889593 C5.18449004,23.4889593 4.89827222,23.2026562 4.89827222,22.8495093 C4.89827222,22.4963624 5.18449004,22.2100593 5.53772222,22.2100593 L5.53772222,22.2100593 L7.63409508,22.2100593 L7.89200658,20.6501424 L5.53772222,20.6501424 C5.18449004,20.6501424 4.89827222,20.3638393 4.89827222,20.0106924 C4.89827222,19.6575455 5.18449004,19.3712424 5.53772222,19.3712424 L5.53772222,19.3712424 L8.10345138,19.3712424 L8.49002022,17.0329869 C8.54774124,16.6846145 8.87599224,16.4486149 9.22521719,16.5064211 C9.57358955,16.5640569 9.80941871,16.8932458 9.75178295,17.2416181 L9.75178295,17.2416181 L9.39965915,19.3713276 L10.9422683,19.3713276 L11.3288372,17.0330722 C11.3864729,16.6846998 11.7152355,16.4487001 12.0640341,16.5065064 Z M10.7309088,20.6501424 L9.18829961,20.6501424 L8.93038811,22.2100593 L10.4729973,22.2100593 L10.7309088,20.6501424 Z M28.7695374,5.99761466 C28.7695374,5.15865626 29.5969004,4.51716003 30.4088314,4.72442709 L30.4083251,4.724 L30.5364526,4.76386633 C30.7858321,4.85477114 30.998775,5.0168887 31.1526206,5.23320564 L31.2245138,5.34580196 C31.9872497,6.68071777 32.085725,8.3231664 31.4876262,9.73959077 L31.4876262,9.73959077 L31.3567521,10.0495109 L34.517596,10.0589747 C35.4273202,10.0589747 36.1689969,10.8007367 36.1689969,11.7123366 C36.1689969,11.8346847 36.1478525,17.3435891 36.1672065,17.7538602 C36.2107743,18.6802953 35.4445427,19.4862581 34.5157203,19.4862581 L34.5157203,19.4862581 L28.4373644,19.4862581 C27.6163959,19.4862581 26.8094952,19.2562266 26.1131768,18.8307792 C26.0123143,19.0512616 25.7902972,19.2048149 25.5318742,19.2048149 L25.5318742,19.2048149 L22.0924858,19.2048149 C21.7392536,19.2048149 21.4530358,18.9185118 21.4530358,18.5653649 L21.4530358,18.5653649 L21.4530358,10.826741 C21.4530358,10.4735941 21.7392536,10.187291 22.0924858,10.187291 L22.0924858,10.187291 L25.5318742,10.187291 C25.7563637,10.187291 25.9534849,10.3031594 26.0675627,10.4781981 L26.0675627,10.4781981 L27.8293754,8.48456358 C28.4354887,7.79762376 28.7695374,6.91424491 28.7695374,5.99761466 Z M30.1141728,5.98013636 C30.0978029,5.95200056 30.0484374,5.96137916 30.0484374,5.9975294 C30.0484374,7.22604073 29.6008224,8.40987582 28.7880388,9.33102485 L28.7880388,9.33102485 L26.1713241,12.2920194 L26.1713241,17.2823724 L26.44049,17.500297 C27.0037175,17.9561822 27.7128249,18.2072729 28.4373644,18.2072729 L28.4373644,18.2072729 L34.5157203,18.2072729 C34.6190554,18.2072729 34.7153139,18.1660923 34.7867618,18.091234 C34.8280277,18.0479219 34.8963209,17.9543064 34.8896706,17.8138832 C34.871425,17.4247566 34.8777342,15.0836875 34.8871981,12.6118296 C34.8880507,12.3879795 34.8887967,12.1935014 34.8893296,12.0397777 L34.8901822,11.7122514 C34.8901822,11.5057517 34.72222,11.3377895 34.5157203,11.3377895 L34.5157203,11.3377895 L30.3919499,11.3254268 C30.1780326,11.3247447 29.9785242,11.2171466 29.8604391,11.0386121 C29.7425245,10.8600777 29.7215505,10.6343945 29.8048495,10.4371881 L29.8048495,10.4371881 L30.3095035,9.24192815 C30.7534523,8.19041658 30.6804697,6.97111333 30.1141728,5.98013636 Z M24.8924242,11.466191 L22.7319358,11.466191 L22.7319358,17.9259149 L24.8924242,17.9259149 L24.8924242,11.466191 Z" id="Combined-Shape" fill-rule="nonzero"></path>
                </g>
            </g>
        </g>
    </g>
</svg>