<?xml version="1.0" encoding="UTF-8"?>
<svg width="50px" height="50px" viewBox="0 0 50 50" version="1.1" xmlns="http://www.w3.org/2000/svg" xmlns:xlink="http://www.w3.org/1999/xlink">
    <!-- Generator: Sketch 61.2 (89653) - https://sketch.com -->
    <title>MachineLearning</title>
    <desc>Created with Sketch.</desc>
    <g id="Drafts" stroke="none" stroke-width="1" fill="none" fill-rule="evenodd">
        <g id="Artboard" transform="translate(-170.000000, -105.000000)" fill="#222222" fill-rule="nonzero">
            <g id="MachineLearning" transform="translate(170.000000, 105.000000)">
                <path d="M31.4516129,0 C34.2170962,0 36.7581275,1.61211573 37.9662298,4.07006048 C38.2210024,4.04525262 38.4671119,4.03225806 38.7096774,4.03225806 C43.1565807,4.03225806 46.7741935,7.64987087 46.7741935,12.0967742 C46.7741935,13.6821131 46.3079637,15.1579827 45.5145067,16.4066438 C48.3000725,18.3566185 50,21.5702179 50,25 C50,28.7814233 47.922442,32.2872038 44.6458386,34.1324345 C44.9888167,35.0861581 45.1612903,36.0808342 45.1612903,37.0967742 C45.1612903,41.2991431 42.1764743,44.9549521 38.0646736,45.7901493 L38.0646736,45.7901493 L38.0256899,45.7984185 C36.8683846,48.2756584 34.3612178,50 31.4516129,50 C27.4492818,50 24.1935484,46.7442666 24.1935484,42.7419355 L24.1935484,42.7419355 L24.1935484,38.7096774 L22.5806452,38.7096774 L22.5806452,41.9354839 L20.9677419,41.9354839 L20.9677419,38.7096774 L17.7419355,38.7096774 L17.7419355,41.9354839 L16.1290323,41.9354839 L16.1290323,38.7096774 L12.9032258,38.7096774 L12.9032258,41.9354839 L11.2903226,41.9354839 L11.2903226,38.7096774 L8.06451613,38.7096774 L8.06451613,41.9354839 L6.4516129,41.9354839 L6.4516129,38.7096774 L3.22580645,38.7096774 L3.22580645,35.483871 L0,35.483871 L0,33.8709677 L3.22580645,33.8709677 L3.22580645,30.6451613 L0,30.6451613 L0,29.0322581 L3.22580645,29.0322581 L3.22580645,25.8064516 L0,25.8064516 L0,24.1935484 L3.22580645,24.1935484 L3.22580645,20.9677419 L0,20.9677419 L0,19.3548387 L3.22580645,19.3548387 L3.22580645,16.1290323 L0,16.1290323 L0,14.516129 L3.22580645,14.516129 L3.22580645,14.1822077 L6.11769153,11.2903226 L6.4516129,11.2903226 L6.4516129,8.06451613 L8.06451613,8.06451613 L8.06451613,11.2903226 L11.2903226,11.2903226 L11.2903226,8.06451613 L12.9032258,8.06451613 L12.9032258,11.2903226 L16.1290323,11.2903226 L16.1290323,8.06451613 L17.7419355,8.06451613 L17.7419355,11.2903226 L20.9677419,11.2903226 L20.9677419,8.06451613 L22.5806452,8.06451613 L22.5806452,11.2903226 L24.1935484,11.2903226 L24.1935484,7.25806452 C24.1935484,3.25652097 27.4492818,0 31.4516129,0 Z M31.4516129,1.61290323 C28.3396075,1.61290323 25.8064516,4.14527157 25.8064516,7.25806452 L25.8064516,7.25806452 L25.8064516,16.1290323 L27.1945092,16.1290323 L27.8540827,18.1105091 L29.7209709,17.1764743 L32.8243133,20.2798166 L31.891066,22.1459173 L33.8709677,22.8062783 L33.8709677,27.1945092 L31.8902784,27.8540827 L32.8243133,29.7209709 L29.7209709,32.8243133 L27.8540827,31.8902784 L27.1945092,33.8709677 L25.8064516,33.8709677 L25.8064516,42.7419355 C25.8064516,45.8539409 28.3396075,48.3870968 31.4516129,48.3870968 C34.5636183,48.3870968 37.0967742,45.8539409 37.0967742,42.7419355 C37.0967742,41.7500157 36.836095,40.7742408 36.3426947,39.9201423 L36.3426947,39.9201423 L37.7378402,39.1121157 C38.3733933,40.2111422 38.7096774,41.4661038 38.7096774,42.7419355 C38.7096774,43.1620936 38.6659683,43.5716199 38.5966639,43.972483 C41.5137506,42.9911952 43.5483871,40.2331936 43.5483871,37.0967742 C43.5483871,36.0572077 43.3266916,35.0452054 42.8888136,34.0887254 L42.8888136,34.0887254 L42.5564673,33.3629978 L43.2790449,33.0235635 C46.3823872,31.5654139 48.3870968,28.4152123 48.3870968,25 C48.3870968,22.067556 46.9088647,19.3339686 44.5072297,17.6887758 C43.0396295,19.2095357 40.9853043,20.1612903 38.7096774,20.1612903 L38.7096774,20.1612903 L38.7096774,18.5483871 C42.2670425,18.5483871 45.1612903,15.6541393 45.1612903,12.0967742 C45.1612903,8.53940907 42.2670425,5.64516129 38.7096774,5.64516129 C38.3643366,5.64516129 38.0048198,5.67823841 37.608682,5.74754284 L37.608682,5.74754284 L36.9558026,5.86055635 L36.7183562,5.24114798 C35.8863093,3.07105282 33.7693738,1.61290323 31.4516129,1.61290323 Z M29.0322581,42.7419355 C29.0322581,44.0756521 30.1178963,45.1612903 31.4516129,45.1612903 L31.4516129,45.1612903 L31.4516129,46.7741935 C29.2283581,46.7741935 27.4193548,44.9651903 27.4193548,42.7419355 L27.4193548,42.7419355 Z M24.1935484,12.9032258 L6.78553427,12.9032258 L4.83870968,14.8500504 L4.83870968,37.0967742 L24.1935484,37.0967742 L24.1935484,33.8709677 L22.8054908,33.8709677 L22.1459173,31.8894909 L20.2790291,32.8235257 L17.1756867,29.7201834 L18.1097216,27.8532952 L16.1290323,27.1937217 L16.1290323,22.8054908 L18.108934,22.1451298 L17.1756867,20.2790291 L20.2790291,17.1756867 L22.1459173,18.1097216 L22.8054908,16.1290323 L24.1935484,16.1290323 L24.1935484,12.9032258 Z M8.06451613,20.9677419 L8.06451613,33.8709677 L20.9677419,33.8709677 L20.9677419,35.483871 L6.4516129,35.483871 L6.4516129,20.9677419 L8.06451613,20.9677419 Z M26.0320848,17.7419355 L23.9687027,17.7419355 L23.3508695,19.594254 L22.9917465,19.7297127 C22.8893649,19.7686965 22.7885585,19.8088615 22.6893271,19.8533581 L22.6893271,19.8533581 L22.3404423,20.0096869 L20.5968056,19.1378685 L19.1378685,20.5968056 L20.0096869,22.3404423 L19.8533581,22.6893271 C19.8088615,22.789346 19.7686965,22.8921214 19.7281376,22.9952904 L19.7281376,22.9952904 L19.5918913,23.3508695 L17.7419355,23.9679152 L17.7419355,26.0312973 L19.5926789,26.6483429 L19.7281376,27.0054971 C19.7679089,27.1098476 19.808074,27.210654 19.8525706,27.3106729 L19.8525706,27.3106729 L20.0088993,27.6595577 L19.137081,29.4031944 L20.5960181,30.8621315 L22.3396547,29.9903131 L22.6885395,30.1466419 C22.7885585,30.1903509 22.8893649,30.2313035 22.9937153,30.2710748 L22.9937153,30.2710748 L23.3508695,30.4065335 L23.9679152,32.2580645 L26.0312973,32.2580645 L26.6483429,30.4073211 L27.0054971,30.2718624 C27.1098476,30.2320911 27.210654,30.191926 27.3106729,30.1474294 L27.3106729,30.1474294 L27.6595577,29.9911007 L29.4031944,30.862919 L30.8621315,29.4039819 L29.9903131,27.6603453 L30.1466419,27.3114605 C30.1903509,27.2114415 30.2313035,27.1106351 30.2710748,27.0062847 L30.2710748,27.0062847 L30.4065335,26.6491305 L32.2580645,26.0320848 L32.2580645,23.9687027 L30.4081087,23.3508695 L30.2718624,22.9952904 C30.2313035,22.8921214 30.191926,22.7901336 30.1466419,22.6893271 L30.1466419,22.6893271 L29.9911007,22.3412298 L30.862919,20.5975932 L29.4039819,19.1386561 L27.6603453,20.0104744 L27.3114605,19.8541457 C27.212229,19.8096491 27.1114226,19.769484 27.0090411,19.7305002 L27.0090411,19.7305002 L26.6499181,19.5950415 L26.0320848,17.7419355 Z M41.2266885,23.4272619 C41.9878559,24.1896107 42.4080141,25.2016129 42.4080141,26.2789819 C42.4080141,27.3563508 41.9878559,28.3695344 41.2266885,29.1299143 C40.4663086,29.8910818 39.453125,30.3112399 38.375756,30.3112399 C37.2983871,30.3112399 36.2855973,29.8910818 35.5248236,29.1299143 L35.5248236,29.1299143 L36.6651966,27.9895413 C37.5791488,28.9030998 39.1727571,28.9030998 40.0863155,27.9895413 C40.5434885,27.5331558 40.7951109,26.9259545 40.7951109,26.2789819 C40.7951109,25.632403 40.542701,25.0248079 40.0863155,24.5676349 L40.0863155,24.5676349 Z M25,20.9677419 C27.2232548,20.9677419 29.0322581,22.7767452 29.0322581,25 C29.0322581,27.2232548 27.2232548,29.0322581 25,29.0322581 C22.7767452,29.0322581 20.9677419,27.2232548 20.9677419,25 C20.9677419,22.7767452 22.7767452,20.9677419 25,20.9677419 Z M25,22.5806452 C23.6662834,22.5806452 22.5806452,23.6662834 22.5806452,25 C22.5806452,26.3337166 23.6662834,27.4193548 25,27.4193548 C26.3337166,27.4193548 27.4193548,26.3337166 27.4193548,25 C27.4193548,23.6662834 26.3337166,22.5806452 25,22.5806452 Z M8.87096774,14.516129 C10.2046844,14.516129 11.2903226,15.6017672 11.2903226,16.9354839 C11.2903226,18.2692005 10.2046844,19.3548387 8.87096774,19.3548387 C7.53725111,19.3548387 6.4516129,18.2692005 6.4516129,16.9354839 C6.4516129,15.6017672 7.53725111,14.516129 8.87096774,14.516129 Z M8.87096774,16.1290323 C8.42600181,16.1290323 8.06451613,16.4913054 8.06451613,16.9354839 C8.06451613,17.3796623 8.42600181,17.7419355 8.87096774,17.7419355 C9.31593367,17.7419355 9.67741935,17.3796623 9.67741935,16.9354839 C9.67741935,16.4913054 9.31593367,16.1290323 8.87096774,16.1290323 Z M32.2580645,8.87096774 C34.4813194,8.87096774 36.2903226,10.679971 36.2903226,12.9032258 C36.2903226,15.1264806 34.4813194,16.9354839 32.2580645,16.9354839 L32.2580645,16.9354839 L32.2580645,15.3225806 C33.5917811,15.3225806 34.6774194,14.2369424 34.6774194,12.9032258 C34.6774194,11.5695092 33.5917811,10.483871 32.2580645,10.483871 L32.2580645,10.483871 Z M20.9677419,14.516129 L20.9677419,16.1290323 L12.9032258,16.1290323 L12.9032258,14.516129 L20.9677419,14.516129 Z M38.7096774,7.25806452 C41.3782919,7.25806452 43.5483871,9.42815968 43.5483871,12.0967742 L43.5483871,12.0967742 L41.9354839,12.0967742 C41.9354839,10.3176978 40.4887538,8.87096774 38.7096774,8.87096774 L38.7096774,8.87096774 Z M31.4516129,3.22580645 L31.4516129,4.83870968 C30.1178963,4.83870968 29.0322581,5.92434788 29.0322581,7.25806452 L29.0322581,7.25806452 L27.4193548,7.25806452 C27.4193548,5.03480968 29.2283581,3.22580645 31.4516129,3.22580645 L31.4516129,3.22580645 Z" id="Combined-Shape-Copy-4"></path>
            </g>
        </g>
    </g>
</svg>