<?xml version="1.0" encoding="UTF-8"?>
<svg width="48px" height="48px" viewBox="0 0 48 48" version="1.1" xmlns="http://www.w3.org/2000/svg" xmlns:xlink="http://www.w3.org/1999/xlink">
    <!-- Generator: Sketch 61.2 (89653) - https://sketch.com -->
    <title>ProductDevelopment</title>
    <desc>Created with Sketch.</desc>
    <g id="Drafts" stroke="none" stroke-width="1" fill="none" fill-rule="evenodd">
        <g id="Artboard" transform="translate(-449.000000, -29.000000)" fill="#FFFFFF" fill-rule="nonzero">
            <g id="ProductDevelopment" transform="translate(449.000000, 29.000000)">
                <path d="M5.59999998,16.0022985 C6.04179688,16.0022985 6.39999998,16.360476 6.39999998,16.8022411 L6.39999998,16.8022411 L6.39999998,20.8019538 L24.8,20.8019538 C24.8160157,20.8019538 24.8292969,20.8101564 24.8414063,20.8085939 C24.9144531,20.8128905 24.9859375,20.826952 25.0550781,20.8507785 C25.0796875,20.8597622 25.1039063,20.8660117 25.1269531,20.8765578 C25.2144531,20.915227 25.2941407,20.96952 25.3621094,21.036312 L25.3621094,21.036312 L30.1621094,25.8359673 C30.2292969,25.9039312 30.2835938,25.9832223 30.3222657,26.0703254 C30.3335938,26.0953236 30.3398438,26.1199313 30.3488281,26.1457106 C30.371875,26.2121122 30.3855469,26.2812478 30.3894531,26.3511647 C30.3910157,26.3687415 30.4,26.3839748 30.4,26.4015516 L30.4,26.4015516 L30.4,36.0008622 L28.8,36.0008622 L28.8,27.2014942 L24.8,27.2014942 C24.3582031,27.2014942 24,26.8433168 24,26.4015516 L24,26.4015516 L24,22.4018389 L6.39999998,22.4018389 L6.39999998,40.8005175 C6.39999998,41.2422827 6.04179688,41.6004601 5.59999998,41.6004601 L5.59999998,41.6004601 L4,41.6004601 C2.67421878,41.6004601 1.59999998,42.6749923 1.59999998,44.0002877 C1.59999998,45.3259738 2.67421878,46.4001154 4,46.4001154 L4,46.4001154 L28.8,46.4001154 L28.8,45.6001728 L30.4,45.6001728 L30.4,47.2000579 C30.4,47.6418231 30.0417969,48.0000005 29.6,48.0000005 L29.6,48.0000005 L4,48.0000005 C1.79179688,47.9976569 0.00234376,46.2083324 0,44.0002877 L0,44.0002877 L0,20.0020113 C0.00234376,17.7943573 1.79179688,16.0050327 4,16.0022985 L4,16.0022985 Z M44,37.6007473 C44.4417969,37.6007473 44.8,37.9589248 44.8,38.4006899 L44.8,38.4006899 L44.8,43.2003452 C44.8,43.6421104 44.4417969,44.0002877 44,44.0002877 L44,44.0002877 L24.8,44.0002877 C24.3582031,44.0002877 24,43.6421104 24,43.2003452 L24,43.2003452 L24,38.4006899 C24,37.9589248 24.3582031,37.6007473 24.8,37.6007473 L24.8,37.6007473 Z M9.59999998,42.4004026 L9.59999998,44.0002877 L7.99999998,44.0002877 L7.99999998,42.4004026 L9.59999998,42.4004026 Z M22.4,42.4004026 L22.4,44.0002877 L20.8,44.0002877 L20.8,42.4004026 L22.4,42.4004026 Z M27.2,39.2006324 L25.6,39.2006324 L25.6,42.4004026 L43.2,42.4004026 L43.2,39.2006324 L41.6,39.2006324 L41.6,40.8005175 L40,40.8005175 L40,39.2006324 L38.4,39.2006324 L38.4,40.8005175 L36.8,40.8005175 L36.8,39.2006324 L35.2,39.2006324 L35.2,40.8005175 L33.6,40.8005175 L33.6,39.2006324 L32,39.2006324 L32,40.8005175 L30.4,40.8005175 L30.4,39.2006324 L28.8,39.2006324 L28.8,40.8005175 L27.2,40.8005175 L27.2,39.2006324 Z M14.7765625,26.5241991 C15.0398438,26.3597579 15.3746094,26.362492 15.6351563,26.5312298 L15.6351563,26.5312298 L22.0351563,30.6766352 C22.05625,30.6922591 22.0765625,30.7094455 22.0957031,30.7278034 C22.1242188,30.7485051 22.1507813,30.7711597 22.1757813,30.7957674 C22.1992188,30.822328 22.2210938,30.8504509 22.2414063,30.8797456 C22.2613281,30.9055251 22.2796875,30.9320857 22.2964844,30.9598181 C22.3144531,30.9941906 22.3296875,31.0301255 22.3414063,31.0668416 C22.3519531,31.092621 22.365625,31.1180098 22.3734375,31.146914 C22.3824219,31.1902702 22.3882813,31.2344078 22.3910157,31.2789358 C22.3925781,31.301981 22.4,31.3238544 22.4,31.3468997 L22.4,31.3468997 L22.4,37.7464401 C22.3992188,38.0261074 22.2523438,38.2850732 22.0125,38.4295941 L22.0125,38.4295941 L15.6125,42.2836142 L15.6007813,42.2894731 L15.5878907,42.2988474 C15.5488281,42.3179868 15.5085938,42.3340012 15.4671875,42.3468909 C15.4460938,42.3543122 15.4261719,42.365249 15.4054688,42.3711079 C15.2695313,42.4093864 15.1253907,42.4093864 14.9894531,42.3711079 C14.9695313,42.3660301 14.9519531,42.3550934 14.9320313,42.3484533 C14.8886719,42.3351729 14.8464844,42.3179868 14.80625,42.297285 C14.8,42.2941603 14.7949219,42.288692 14.7886719,42.2843954 L14.7886719,42.2843954 L14.7757813,42.278927 L8.37578128,38.2792142 C8.14179688,38.133131 7.99999998,37.8765088 7.99999998,37.6007473 L7.99999998,37.6007473 L7.99999998,31.2012069 C8.00039068,31.1316807 8.01015628,31.0625451 8.02851568,30.995753 C8.03515628,30.9719266 8.04687498,30.9508343 8.05507808,30.9285703 C8.06953128,30.8863859 8.08671878,30.8457638 8.10703128,30.8063135 C8.12265628,30.7817059 8.14023438,30.7578794 8.15898438,30.7356154 C8.18046878,30.7031959 8.20429688,30.6723387 8.23124998,30.6438252 C8.25507808,30.6211705 8.28046878,30.5996876 8.30703128,30.5805484 C8.33124998,30.5621903 8.35117188,30.5399263 8.37656248,30.5239119 L8.37656248,30.5239119 Z M4.79999998,17.6021836 L3.99999998,17.6021836 C2.67421878,17.6021836 1.59999998,18.6767158 1.59999998,20.0020113 L1.59999998,20.0020113 L1.59999998,40.8005175 C2.29140628,40.2798518 3.13398438,39.9990126 3.99999998,40.000575 L3.99999998,40.000575 L4.79999998,40.000575 L4.79999998,17.6021836 Z M20.8,32.7620323 L20.1964844,33.1260687 L16,35.6528404 L16,40.1845462 L20.8,37.2937382 L20.8,32.7620323 Z M9.59999998,32.6491499 L9.59999998,37.1609352 L14.4,40.1607198 L14.4,35.6489344 L9.59999998,32.6491499 Z M27.2,34.4009771 L27.2,36.0008622 L24,36.0008622 L24,34.4009771 L27.2,34.4009771 Z M32.3816407,0.117892509 C32.6421875,-0.0418617179 32.9714844,-0.0391275142 33.2292969,0.125313776 L33.2292969,0.125313776 L47.6292969,9.28754636 C47.6539063,9.30629501 47.6773438,9.32582491 47.7,9.34691709 C47.7257813,9.36605642 47.7507813,9.3871486 47.7742188,9.4094126 C47.7996094,9.43714501 47.8226563,9.46722105 47.8429688,9.49885938 C47.8625,9.5222952 47.8804688,9.5472934 47.8964844,9.57346342 C47.9136719,9.60744528 47.9285157,9.64259906 47.940625,9.67892455 C47.953125,9.70626628 47.9640625,9.73438926 47.9734375,9.76290292 C47.9824219,9.80430614 47.9878907,9.84688119 47.9902344,9.88906576 C47.9945313,9.91367329 47.9980469,9.93828092 48,9.96288855 L48,9.96288855 L48,25.8816672 C47.9996094,26.1644593 47.85,26.4261593 47.60625,26.5695084 L47.60625,26.5695084 L33.20625,35.089209 C32.9589844,35.2352922 32.6523438,35.2376359 32.403125,35.0954586 C32.1535157,34.9532813 31.9992188,34.6884565 31.9992188,34.4009771 L31.9992188,34.4009771 L31.9992188,18.9341193 L19.1992188,11.0756992 L19.1992188,19.2020687 L17.5992075,19.2020687 L17.5992075,9.64220848 C17.5988281,9.57190093 17.6085938,9.50237473 17.6269531,9.43480148 C17.6351563,9.41136566 17.6445313,9.38792985 17.6550781,9.36527517 C17.6683594,9.32387195 17.6855469,9.28403101 17.7054688,9.24536199 C17.7207031,9.21880129 17.7414063,9.19731854 17.7589844,9.17232033 C17.7800781,9.14029133 17.8039063,9.10982482 17.8300781,9.08131117 C17.853125,9.06100023 17.8765625,9.04147033 17.9015625,9.02389349 C17.9269531,9.00084825 17.9535157,8.97936539 17.9816407,8.95983559 L17.9816407,8.95983559 Z M15.1894531,28.1502543 L10.309375,31.2012069 L15.2078125,34.2666118 L16.9167969,33.2315299 L20.0878907,31.3215108 L15.1894531,28.1502543 Z M46.4,11.3690376 L33.6,18.9431029 L33.6,32.9979529 L46.4,25.4250593 L46.4,11.3690376 Z M27.2,31.2012069 L27.2,32.801092 L24,32.801092 L24,31.2012069 L27.2,31.2012069 Z M9.59999998,24.8016666 L9.59999998,26.4015516 L7.99999998,26.4015516 L7.99999998,24.8016666 L9.59999998,24.8016666 Z M22.4,24.8016666 L22.4,26.4015516 L20.8,26.4015516 L20.8,24.8016666 L22.4,24.8016666 Z M25.6,23.5330077 L25.6,25.6016091 L27.66875,25.6016091 L25.6,23.5330077 Z M22.4,15.202356 L22.4,19.2020687 L20.8,19.2020687 L20.8,15.202356 L22.4,15.202356 Z M32.7925781,1.74746288 L19.9285157,9.64455202 L32.403125,17.3037675 L32.8078125,17.5525778 L45.6726563,9.9414057 L32.7925781,1.74746288 Z M29.0160157,5.72491162 L29.8632813,7.08067365 L26.0238281,9.4805013 L25.1761719,8.1243487 L29.0160157,5.72491162 Z M31.5757813,4.12463595 L32.4234375,5.48078855 L31.1433594,6.2807311 L30.2957031,4.9245785 L31.5757813,4.12463595 Z" id="Combined-Shape"></path>
            </g>
        </g>
    </g>
</svg>