<?xml version="1.0" encoding="UTF-8"?>
<svg width="52px" height="58px" viewBox="0 0 52 58" version="1.1" xmlns="http://www.w3.org/2000/svg" xmlns:xlink="http://www.w3.org/1999/xlink">
    <!-- Generator: Sketch 61.2 (89653) - https://sketch.com -->
    <title>ReinforcementLearning</title>
    <desc>Created with Sketch.</desc>
    <g id="Drafts" stroke="none" stroke-width="1" fill="none" fill-rule="evenodd">
        <g id="Artboard" transform="translate(-35.000000, -361.000000)">
            <g id="ReinforcementLearning" transform="translate(35.000000, 361.000000)">
                <g id="Group-37">
                    <path d="M50.4401809,-5.15143483e-13 C50.6265409,-5.15143483e-13 50.7986209,0.101400006 50.8887409,0.265260014 C50.9788009,0.428580023 50.9726809,0.628260034 50.8728409,0.785940043 L50.8728409,0.785940043 L44.8850206,10.2400206 L50.9522209,10.2400206 C51.1513609,10.2400206 51.3321409,10.3557006 51.416081,10.5359406 C51.500021,10.7166606 51.472361,10.9296606 51.3439009,11.0821806 L51.3439009,11.0821806 L46.2223521,17.1640223 C46.5785578,18.0733823 46.7741935,19.0626548 46.7741935,20.0967742 C46.7741935,21.6821131 46.3079637,23.1579827 45.5145067,24.4066437 C48.3000725,26.3566185 50,29.5702179 50,33 C50,36.7814233 47.922442,40.2872038 44.6458386,42.1324345 C44.9888167,43.0861581 45.1612903,44.0808342 45.1612903,45.0967742 C45.1612903,49.209731 42.3021365,52.7991384 38.3255805,53.7330301 L38.0646736,53.7901493 L38.0256899,53.7984185 C36.8683846,56.2756584 34.3612178,58 31.4516129,58 C27.5293284,58 24.3240764,54.8731937 24.1974352,50.9811594 L24.1935484,50.7419355 L24.1935484,46.7096774 L22.5806452,46.7096774 L22.5806452,49.9354839 L20.9677419,49.9354839 L20.9677419,46.7096774 L17.7419355,46.7096774 L17.7419355,49.9354839 L16.1290323,49.9354839 L16.1290323,46.7096774 L12.9032258,46.7096774 L12.9032258,49.9354839 L11.2903226,49.9354839 L11.2903226,46.7096774 L8.06451613,46.7096774 L8.06451613,49.9354839 L6.4516129,49.9354839 L6.4516129,46.7096774 L3.22580645,46.7096774 L3.22580645,43.483871 L0,43.483871 L0,41.8709677 L3.22580645,41.8709677 L3.22580645,38.6451613 L0,38.6451613 L0,37.0322581 L3.22580645,37.0322581 L3.22580645,33.8064516 L0,33.8064516 L0,32.1935484 L3.22580645,32.1935484 L3.22580645,28.9677419 L0,28.9677419 L0,27.3548387 L3.22580645,27.3548387 L3.22580645,24.1290323 L0,24.1290323 L0,22.516129 L3.22580645,22.516129 L3.22580645,22.1822077 L6.11769153,19.2903226 L6.4516129,19.2903226 L6.4516129,16.0645161 L8.06451613,16.0645161 L8.06451613,19.2903226 L11.2903226,19.2903226 L11.2903226,16.0645161 L12.9032258,16.0645161 L12.9032258,19.2903226 L16.1290323,19.2903226 L16.1290323,16.0645161 L17.7419355,16.0645161 L17.7419355,19.2903226 L20.9677419,19.2903226 L20.9677419,16.0645161 L22.5806452,16.0645161 L22.5806452,19.2903226 L24.1935484,19.2903226 L24.1935484,15.2580645 C24.1935484,11.256521 27.4492818,8 31.4516129,8 C33.4944573,8 35.4148255,8.87968003 36.7659109,10.3301642 L41.7899804,0.283140015 C41.8769804,0.109560006 42.0541604,-5.15143483e-13 42.2482005,-5.15143483e-13 L42.2482005,-5.15143483e-13 Z M31.4516129,9.61290323 C28.4137028,9.61290323 25.9274062,12.0261182 25.8107333,15.0367356 L25.8064516,15.2580645 L25.8064516,24.1290323 L27.1945092,24.1290323 L27.8540827,26.1105091 L29.7209709,25.1764743 L32.8243133,28.2798166 L31.891066,30.1459173 L33.8709677,30.8062783 L33.8709677,35.1945092 L31.8902784,35.8540827 L32.8243133,37.7209709 L29.7209709,40.8243133 L27.8540827,39.8902784 L27.1945092,41.8709677 L25.8064516,41.8709677 L25.8064516,50.7419355 C25.8064516,53.8539409 28.3396075,56.3870968 31.4516129,56.3870968 C34.5636183,56.3870968 37.0967742,53.8539409 37.0967742,50.7419355 C37.0967742,49.8492077 36.885624,48.9695573 36.4837052,48.1799166 L36.3426947,47.9201423 L37.7378402,47.1121157 C38.3733933,48.2111422 38.7096774,49.4661038 38.7096774,50.7419355 C38.7096774,51.1620936 38.6659683,51.5716199 38.5966639,51.972483 C41.5137506,50.9911952 43.5483871,48.2331936 43.5483871,45.0967742 C43.5483871,44.1727151 43.3732203,43.2704351 43.0267586,42.4095701 L42.8888136,42.0887254 L42.5564673,41.3629978 L43.2790449,41.0235635 C46.3823872,39.5654139 48.3870968,36.4152123 48.3870968,33 C48.3870968,30.067556 46.9088647,27.3339686 44.5072297,25.6887758 C43.1063386,27.1404102 41.1708489,28.0735915 39.0185842,28.155427 L38.7096774,28.1612903 L38.7096774,26.5483871 C42.2670425,26.5483871 45.1612903,23.6541393 45.1612903,20.0967742 C45.1612903,19.5907174 45.10272,19.0980801 44.9920025,18.625285 L34.9598801,30.5382017 C34.8595,30.6569417 34.7146,30.7199417 34.56766,30.7199417 C34.47598,30.7199417 34.38382,30.6954017 34.3009,30.6447017 C34.08538,30.5125817 33.99832,30.2422817 34.09612,30.0093016 L34.09612,30.0093016 L39.5787326,16.9898061 C39.3585283,16.9281601 39.1288723,16.8893444 38.8924886,16.8760828 L38.7096774,16.8709677 L38.709,16.383 L34.5682,16.3839609 C34.42015,16.3839609 34.28135,16.3199609 34.1849597,16.2112317 L34.13248,16.1407809 C34.0393,15.9897609 34.0306,15.8013609 34.10998,15.6431409 L34.10998,15.6431409 L35.9804108,11.9016411 C34.9304214,10.4923146 33.2515761,9.61290323 31.4516129,9.61290323 Z M29.0322581,50.7419355 C29.0322581,52.0223035 30.0327822,53.0740423 31.2928113,53.1561329 L31.4516129,53.1612903 L31.4516129,54.7741935 C29.2957294,54.7741935 27.5293718,53.0731657 27.4242995,50.9428696 L27.4193548,50.7419355 L29.0322581,50.7419355 Z M24.1935484,20.9032258 L6.78553427,20.9032258 L4.83870968,22.8500504 L4.83870968,45.0967742 L24.1935484,45.0967742 L24.1935484,41.8709677 L22.8054908,41.8709677 L22.1459173,39.8894909 L20.2790291,40.8235257 L17.1756867,37.7201834 L18.1097216,35.8532952 L16.1290323,35.1937217 L16.1290323,30.8054908 L18.108934,30.1451298 L17.1756867,28.2790291 L20.2790291,25.1756867 L22.1459173,26.1097216 L22.8054908,24.1290323 L24.1935484,24.1290323 L24.1935484,20.9032258 Z M8.06451613,28.9677419 L8.06451613,41.8709677 L20.9677419,41.8709677 L20.9677419,43.483871 L6.4516129,43.483871 L6.4516129,28.9677419 L8.06451613,28.9677419 Z M26.0320848,25.7419355 L23.9687027,25.7419355 L23.3508695,27.594254 L22.9917465,27.7297127 L22.8393555,27.7894681 L22.8393555,27.7894681 L22.6893271,27.8533581 L22.3404423,28.0096869 L20.5968056,27.1378685 L19.1378685,28.5968056 L20.0096869,30.3404423 L19.8533581,30.6893271 L19.7892712,30.8411274 L19.7892712,30.8411274 L19.7281376,30.9952904 L19.5918913,31.3508695 L17.7419355,31.9679152 L17.7419355,34.0312973 L19.5926789,34.6483429 L19.7281376,35.0054971 L19.7885821,35.1597093 L19.7885821,35.1597093 L19.8525706,35.3106729 L20.0088993,35.6595577 L19.137081,37.4031944 L20.5960181,38.8621315 L22.3396547,37.9903131 L22.6885395,38.1466419 L22.8395031,38.210335 L22.8395031,38.210335 L22.9937153,38.2710748 L23.3508695,38.4065335 L23.9679152,40.2580645 L26.0312973,40.2580645 L26.6483429,38.4073211 L27.0054971,38.2718624 L27.1597093,38.2114179 L27.1597093,38.2114179 L27.3106729,38.1474294 L27.6595577,37.9911007 L29.4031944,38.862919 L30.8621315,37.4039819 L29.9903131,35.6603453 L30.1466419,35.3114605 L30.210335,35.1604969 L30.210335,35.1604969 L30.2710748,35.0062847 L30.4065335,34.6491305 L32.2580645,34.0320848 L32.2580645,31.9687027 L30.4081087,31.3508695 L30.2718624,30.9952904 L30.2110241,30.8414228 L30.2110241,30.8414228 L30.1466419,30.6893271 L29.9911007,30.3412298 L30.862919,28.5975932 L29.4039819,27.1386561 L27.6603453,28.0104744 L27.3114605,27.8541457 L27.1614321,27.7902556 L27.1614321,27.7902556 L27.0090411,27.7305002 L26.6499181,27.5950415 L26.0320848,25.7419355 Z M41.2266885,31.4272619 C41.9878559,32.1896107 42.4080141,33.2016129 42.4080141,34.2789819 C42.4080141,35.3563508 41.9878559,36.3695344 41.2266885,37.1299143 C40.4663086,37.8910818 39.453125,38.3112399 38.375756,38.3112399 C37.375342,38.3112399 36.430611,37.9489607 35.6916356,37.2877732 L35.5248236,37.1299143 L36.6651966,35.9895413 C37.5791488,36.9030998 39.1727571,36.9030998 40.0863155,35.9895413 C40.5434885,35.5331558 40.7951109,34.9259545 40.7951109,34.2789819 C40.7951109,33.6970609 40.5906589,33.1467167 40.2170635,32.709188 L40.0863155,32.5676349 L41.2266885,31.4272619 Z M25,28.9677419 C27.2232548,28.9677419 29.0322581,30.7767452 29.0322581,33 C29.0322581,35.2232548 27.2232548,37.0322581 25,37.0322581 C22.7767452,37.0322581 20.9677419,35.2232548 20.9677419,33 C20.9677419,30.7767452 22.7767452,28.9677419 25,28.9677419 Z M25,30.5806452 C23.6662834,30.5806452 22.5806452,31.6662834 22.5806452,33 C22.5806452,34.3337166 23.6662834,35.4193548 25,35.4193548 C26.3337166,35.4193548 27.4193548,34.3337166 27.4193548,33 C27.4193548,31.6662834 26.3337166,30.5806452 25,30.5806452 Z M8.87096774,22.516129 C10.2046844,22.516129 11.2903226,23.6017672 11.2903226,24.9354839 C11.2903226,26.2692005 10.2046844,27.3548387 8.87096774,27.3548387 C7.53725111,27.3548387 6.4516129,26.2692005 6.4516129,24.9354839 C6.4516129,23.6017672 7.53725111,22.516129 8.87096774,22.516129 Z M8.87096774,24.1290323 C8.42600181,24.1290323 8.06451613,24.4913054 8.06451613,24.9354839 C8.06451613,25.3796623 8.42600181,25.7419355 8.87096774,25.7419355 C9.31593367,25.7419355 9.67741935,25.3796623 9.67741935,24.9354839 C9.67741935,24.4913054 9.31593367,24.1290323 8.87096774,24.1290323 Z M32.2580645,16.8709677 C34.4813194,16.8709677 36.2903226,18.679971 36.2903226,20.9032258 C36.2903226,23.0591093 34.5892948,24.8254669 32.4589986,24.9305392 L32.2580645,24.9354839 L32.2580645,23.3225806 C33.5917811,23.3225806 34.6774194,22.2369424 34.6774194,20.9032258 C34.6774194,19.6228578 33.6768952,18.5711189 32.4168661,18.4890284 L32.2580645,18.483871 L32.2580645,16.8709677 Z M20.9677419,22.516129 L20.9677419,24.1290323 L12.9032258,24.1290323 L12.9032258,22.516129 L20.9677419,22.516129 Z M31.4516129,11.2258065 L31.4516129,12.8387097 C30.1712449,12.8387097 29.119506,13.8392338 29.0374155,15.0992629 L29.0322581,15.2580645 L27.4193548,15.2580645 C27.4193548,13.0348097 29.2283581,11.2258065 31.4516129,11.2258065 Z" id="Combined-Shape" fill="#222222" fill-rule="nonzero"></path>
                    <g id="flash" transform="translate(34.000000, 0.000000)"></g>
                </g>
            </g>
        </g>
    </g>
</svg>