<?xml version="1.0" encoding="UTF-8"?>
<svg width="21px" height="32px" viewBox="0 0 21 32" version="1.1" xmlns="http://www.w3.org/2000/svg" xmlns:xlink="http://www.w3.org/1999/xlink">
    <!-- Generator: Sketch 58 (84663) - https://sketch.com -->
    <title>Group 6</title>
    <desc>Created with Sketch.</desc>
    <g id="Final-designs" stroke="none" stroke-width="1" fill="none" fill-rule="evenodd">
        <g id="01" transform="translate(-673.000000, -656.000000)">
            <g id="Group-8" transform="translate(668.000000, 656.000000)">
                <g id="Group-6" transform="translate(5.000000, 0.000000)">
                    <rect id="Rectangle" fill="#000000" x="0" y="0" width="21.0000014" height="31.5000021" rx="10.5000007"></rect>
                    <circle id="Oval" fill="#FFFFFF" cx="10.5000007" cy="7.70000052" r="2.80000019"></circle>
                </g>
            </g>
        </g>
    </g>
</svg>