<?xml version="1.0" encoding="UTF-8"?>
<svg width="78px" height="52px" viewBox="0 0 78 52" version="1.1" xmlns="http://www.w3.org/2000/svg" xmlns:xlink="http://www.w3.org/1999/xlink">
    <!-- Generator: Sketch 61.2 (89653) - https://sketch.com -->
    <title>Combined Shape</title>
    <desc>Created with Sketch.</desc>
    <g id="Drafts" stroke="none" stroke-width="1" fill="none" fill-rule="evenodd">
        <g id="HPSW-Portfolio-solutions-01" transform="translate(-225.000000, -655.000000)" fill="white" fill-rule="nonzero">
            <g id="Group-3" transform="translate(61.000000, 281.000000)">
                <g id="Group-4-Copy-2" transform="translate(0.000000, 289.000000)">
                    <g id="Group-8" transform="translate(58.000000, 85.000000)">
                        <path d="M168.137088,25.850995 C171.024954,24.1642928 175.064325,24.2668488 177.781876,26.5879728 C178.816623,26.3327281 182.898305,24.9058513 182.898305,24.9058513 L182.898305,24.9058513 L181.590678,28.4545932 C181.84026,28.4347437 181.792057,28.4426326 184,28.3459297 C183.994644,28.3533097 181.522659,31.5742796 180.651532,32.6794919 C180.216638,33.2314619 179.999459,33.9506261 180.039896,34.7041452 C180.307687,39.6815452 179.018538,44.4645213 175.089765,47.8269829 C170.425369,51.8190313 163.496793,52.5659339 157.342938,51.6487832 C154.574507,51.2360146 151.772602,49.8600341 150.979671,49.4480288 L150.979671,49.4480288 L148.9,48.3675012 L151.151593,47.6641149 C153.612599,46.8948179 155.109823,46.4179199 156.96321,45.6705083 C155.107413,44.816469 153.677405,43.2801654 152.988912,41.2944477 L152.988912,41.2944477 L152.465112,39.7830832 L152.894382,39.8456856 C152.487071,39.4553113 152.165721,39.0595929 151.916139,38.6992473 C151.029748,37.4197153 150.560309,35.8556731 150.660195,34.5158291 L150.660195,34.5158291 L150.758743,33.1968524 L151.589433,33.502739 C151.238893,32.8736612 150.98583,32.2018305 150.836938,31.4974263 C150.47408,29.7804408 150.777756,27.9560644 151.692265,26.3604665 L151.692265,26.3604665 L152.415838,25.0977303 L153.384173,26.2029426 C156.445836,29.6979889 160.323728,31.7712481 164.926265,32.3781861 C164.502886,29.6051032 165.772219,27.232574 168.137088,25.850995 Z M176.459788,28.0848319 C174.298708,26.1935268 171.178667,26.3665741 169.213075,27.5145393 C168.272055,28.0642189 166.18569,29.6880641 167.137689,32.8861307 C167.180536,33.0299127 167.184821,33.0334754 167.348441,34.543822 C166.605052,34.3799361 159.219891,34.8458913 152.929998,28.6462177 C152.337911,30.8037102 153.145571,33.0479809 155.160971,34.5417861 L155.160971,34.5417861 L157.958056,36.6152999 L154.427757,36.2834563 C153.708737,36.2157642 153.262863,36.1462908 152.880457,36.0488245 C153.024529,36.5504071 153.264738,37.0944882 153.632416,37.6255907 C154.192369,38.4338233 155.248807,39.4876304 157.102194,39.9189762 L157.102194,39.9189762 L160.916351,40.806607 L157.133793,41.8077365 C156.638111,41.9390489 156.140286,42.0184471 155.623983,42.046949 C156.596335,43.4674636 158.178181,44.3423703 160.077895,44.4579049 L160.077895,44.4579049 L164.043891,44.6991531 L160.451733,46.314855 C157.878522,47.472236 156.285161,48.0735753 154.221826,48.7482053 C155.240238,49.1449416 156.470741,49.542187 157.661343,49.7195604 C164.23563,50.699568 170.087148,49.4808569 173.714922,46.3759305 C176.820503,43.7181277 178.258009,39.8245636 177.987807,34.8039019 C177.923002,33.5956246 178.284789,32.4252651 179.007023,31.5088779 C179.315251,31.1179946 179.571528,30.7920041 179.785226,30.519709 L179.785226,30.519709 L178.653002,30.5189456 L179.539928,28.1120614 C179.113872,28.2563523 178.67871,28.388937 178.148483,28.5141418 C177.557734,28.6535976 176.926549,28.4930199 176.459788,28.0848319 Z M142.61582,0 C146.080955,0 148.899999,2.81904364 148.899999,6.28417952 L148.899999,6.28417952 L148.899999,36.6158193 C148.899999,40.0809552 146.080955,42.8999989 142.61582,42.8999989 L142.61582,42.8999989 L131.304296,42.8999989 L131.304296,27.6503899 L137.780602,27.6503899 L138.618492,22.6230463 L131.304296,22.6230463 L131.304296,17.5957027 C131.304296,16.2095828 132.431848,15.0820309 133.817968,15.0820309 L133.817968,15.0820309 L138.845312,15.0820309 L138.845312,10.0546872 L132.561132,10.0546872 C129.095996,10.0546872 126.276953,12.8737309 126.276953,16.3388668 L126.276953,16.3388668 L126.276953,22.6230463 L121.249609,22.6230463 L121.249609,27.6503899 L126.276953,27.6503899 L126.276953,42.8999989 L112.28418,42.8999989 C108.819044,42.8999989 106,40.0809552 106,36.6158193 L106,36.6158193 L106,6.28417952 C106,2.81904364 108.819044,0 112.28418,0 L112.28418,0 Z M142.61582,2.51367181 L112.28418,2.51367181 C110.205163,2.51367181 108.513672,4.20516346 108.513672,6.28417952 L108.513672,6.28417952 L108.513672,36.6158193 C108.513672,38.6948354 110.205163,40.3863271 112.28418,40.3863271 L112.28418,40.3863271 L123.763281,40.3863271 L123.763281,30.1640617 L118.735937,30.1640617 L118.735937,20.1093745 L123.763281,20.1093745 L123.763281,16.3388668 C123.763281,11.487611 127.709877,7.54101543 132.561132,7.54101543 L132.561132,7.54101543 L141.358984,7.54101543 L141.358984,17.5957027 L133.817968,17.5957027 L133.817968,20.1093745 L141.585803,20.1093745 L139.910022,30.1640617 L133.817968,30.1640617 L133.817968,40.3863271 L142.61582,40.3863271 C144.694836,40.3863271 146.386327,38.6948354 146.386327,36.6158193 L146.386327,36.6158193 L146.386327,6.28417952 C146.386327,4.20516346 144.694836,2.51367181 142.61582,2.51367181 L142.61582,2.51367181 Z" id="Combined-Shape"></path>
                    </g>
                </g>
            </g>
        </g>
    </g>
</svg>