<?xml version="1.0" encoding="UTF-8"?>
<svg width="51px" height="34px" viewBox="0 0 51 34" version="1.1" xmlns="http://www.w3.org/2000/svg" xmlns:xlink="http://www.w3.org/1999/xlink">
    <!-- Generator: Sketch 61.2 (89653) - https://sketch.com -->
    <title>SocialMediaMarketing</title>
    <desc>Created with Sketch.</desc>
    <g id="Drafts" stroke="none" stroke-width="1" fill="none" fill-rule="evenodd">
        <g id="Artboard" transform="translate(-729.000000, -191.000000)" fill="#222222" fill-rule="nonzero">
            <g id="SocialMediaMarketing" transform="translate(729.000000, 191.000000)">
                <path d="M40.6280961,16.9025736 C42.5163163,15.7997299 45.1574433,15.8667857 46.9343033,17.3844438 C47.6108689,17.217553 50.2796608,16.2845951 50.2796608,16.2845951 L50.2796608,16.2845951 L49.4246739,18.6049263 C49.587862,18.5919478 49.556345,18.5971059 51,18.5338771 C50.9964981,18.5387025 49.3801998,20.6447213 48.8106171,21.3673601 C48.5262634,21.7282635 48.3842617,22.1984863 48.410701,22.6911719 C48.5857956,25.9456257 47.7428902,29.0729563 45.1740773,31.2714888 C42.1242794,33.8816743 37.5940568,34.3700337 33.5703828,33.7703583 C31.7602548,33.5004711 29.92824,32.6007915 29.4097849,32.3314035 L29.4097849,32.3314035 L28.0500001,31.6249047 L29.5221956,31.1649982 C31.131315,30.6619963 32.1102689,30.3501784 33.3220987,29.8614862 C32.1086931,29.3030759 31.1736879,28.2985697 30.7235196,27.0002158 L30.7235196,27.0002158 L30.3810346,26.012016 L30.6617113,26.0529483 C30.3953924,25.7977035 30.1852788,25.5389646 30.0220907,25.303354 C29.4425275,24.4667369 29.1355867,23.444094 29.200897,22.5680421 L29.200897,22.5680421 L29.2653318,21.7056343 L29.8084753,21.905637 C29.5792764,21.4943169 29.413812,21.055043 29.3164594,20.594471 C29.0792062,19.4718267 29.2777635,18.2789652 29.8757116,17.2356896 L29.8757116,17.2356896 L30.3488172,16.4100544 L30.9819593,17.1326932 C32.9838159,19.4179158 35.5193608,20.7735084 38.5287118,21.1703524 C38.2518872,19.3571829 39.0818356,17.8059138 40.6280961,16.9025736 Z M46.0698613,18.3631593 C44.6568478,17.1265367 42.6168206,17.239683 41.3316262,17.9902757 C40.7163438,18.3496816 39.3521817,19.4114265 39.974643,21.5024701 C40.0026582,21.5964814 40.0054597,21.5988109 40.1124425,22.5863451 C39.6263799,22.479189 34.7976209,22.783852 30.6849988,18.7302192 C30.2978647,20.1408874 30.82595,21.6082952 32.143712,22.585014 L32.143712,22.585014 L33.9725751,23.940773 L31.6643029,23.7237983 C31.1941739,23.6795381 30.9026414,23.6341132 30.6526063,23.5703852 C30.7468072,23.8983431 30.9038671,24.2540884 31.144272,24.6013477 C31.5103948,25.1298075 32.201143,25.8188353 33.4129727,26.1008691 L33.4129727,26.1008691 L35.9068452,26.6812431 L33.4336339,27.3358277 C33.1095338,27.4216858 32.7840329,27.4736 32.4464505,27.4922359 C33.082219,28.4210339 34.1165029,28.9930883 35.358624,29.0686301 L35.358624,29.0686301 L37.9517751,29.2263694 L35.603056,30.2827898 C33.920572,31.0395389 32.8787591,31.4327223 31.5296552,31.8738265 C32.19554,32.133231 33.0000997,32.3929684 33.7785703,32.5089434 C38.0771428,33.1497175 41.903135,32.352868 44.2751416,30.3227238 C46.3057137,28.5849296 47.2456215,26.0391378 47.068951,22.7563974 C47.0265782,21.96637 47.263131,21.2011349 47.7353611,20.6019586 C47.936895,20.3463811 48.1044606,20.1332334 48.244186,19.9551944 L48.244186,19.9551944 L47.503886,19.9546952 L48.0837994,18.3809632 C47.8052238,18.4753073 47.5206951,18.5619973 47.1740078,18.643862 C46.7877491,18.7350446 46.3750511,18.6300515 46.0698613,18.3631593 Z M23.9411128,0 C26.2067786,0 28.0499994,1.84322084 28.0499994,4.10888661 L28.0499994,4.10888661 L28.0499994,23.9411126 C28.0499994,26.2067784 26.2067786,28.0499993 23.9411128,28.0499993 L23.9411128,28.0499993 L16.5451168,28.0499993 L16.5451168,18.0791011 L20.7796241,18.0791011 L21.3274757,14.7919918 L16.5451168,14.7919918 L16.5451168,11.5048825 C16.5451168,10.5985734 17.2823624,9.86132786 18.1886715,9.86132786 L18.1886715,9.86132786 L21.4757808,9.86132786 L21.4757808,6.57421858 L17.3668942,6.57421858 C15.1012284,6.57421858 13.2580075,8.41743941 13.2580075,10.6831052 L13.2580075,10.6831052 L13.2580075,14.7919918 L9.97089823,14.7919918 L9.97089823,18.0791011 L13.2580075,18.0791011 L13.2580075,28.0499993 L4.10888663,28.0499993 C1.84322085,28.0499993 0,26.2067784 0,23.9411126 L0,23.9411126 L0,4.10888661 C0,1.84322084 1.84322085,0 4.10888663,0 L4.10888663,0 Z M23.9411128,1.64355464 L4.10888663,1.64355464 C2.74952997,1.64355464 1.64355465,2.74952996 1.64355465,4.10888661 L1.64355465,4.10888661 L1.64355465,23.9411126 C1.64355465,25.3004693 2.74952997,26.4064446 4.10888663,26.4064446 L4.10888663,26.4064446 L11.6144529,26.4064446 L11.6144529,19.7226557 L8.32734357,19.7226557 L8.32734357,13.1484372 L11.6144529,13.1484372 L11.6144529,10.6831052 C11.6144529,7.5111303 14.1949193,4.93066393 17.3668942,4.93066393 L17.3668942,4.93066393 L23.1193354,4.93066393 L23.1193354,11.5048825 L18.1886715,11.5048825 L18.1886715,13.1484372 L23.2676406,13.1484372 L22.1719375,19.7226557 L18.1886715,19.7226557 L18.1886715,26.4064446 L23.9411128,26.4064446 C25.3004694,26.4064446 26.4064448,25.3004693 26.4064448,23.9411126 L26.4064448,23.9411126 L26.4064448,4.10888661 C26.4064448,2.74952996 25.3004694,1.64355464 23.9411128,1.64355464 L23.9411128,1.64355464 Z" id="Combined-Shape-Copy"></path>
            </g>
        </g>
    </g>
</svg>