<?xml version="1.0" encoding="UTF-8"?>
<svg width="46px" height="46px" viewBox="0 0 46 46" version="1.1" xmlns="http://www.w3.org/2000/svg" xmlns:xlink="http://www.w3.org/1999/xlink">
    <!-- Generator: Sketch 61.2 (89653) - https://sketch.com -->
    <title>UserResearch</title>
    <desc>Created with Sketch.</desc>
    <g id="Drafts" stroke="none" stroke-width="1" fill="none" fill-rule="evenodd">
        <g id="Artboard" transform="translate(-594.000000, -187.000000)" fill="#222222">
            <g id="UserResearch" transform="translate(594.000000, 187.000000)">
                <g id="research">
                    <path d="M23,9.5476716 C28.8544883,9.5476716 33.8371328,13.3512506 35.6075937,18.6169084 C36.2918437,17.9347907 37.2352031,17.5124204 38.2753242,17.5124204 C40.3599688,17.5124204 42.0560391,19.2085503 42.0560391,21.2932681 L42.0560391,21.2932681 L42.0560391,22.0139302 C42.0560391,22.793981 41.8184922,23.5195847 41.4120391,24.1222777 C44.0290977,24.6737581 46,27.0003438 46,29.779129 L46,29.779129 L46,31.5881066 C46,32.0842412 45.5976797,32.4865757 45.1015625,32.4865757 L45.1015625,32.4865757 L35.7578125,32.4865757 C35.2616953,32.4865757 34.859375,32.0842412 34.859375,31.5881066 C34.859375,31.091972 35.2616953,30.6896375 35.7578125,30.6896375 L35.7578125,30.6896375 L44.203125,30.6896375 L44.203125,29.779129 C44.203125,27.5821025 42.4157734,25.7946881 40.2188242,25.7946881 L40.2188242,25.7946881 L35.9666094,25.7946881 C34.6212891,31.7120055 29.3185312,36.1423566 23,36.1423566 C18.9520898,36.1423566 15.3214141,34.3235856 12.8806289,31.4608834 L12.8806289,31.4608834 L2.8175,41.5242762 C2.20539453,42.1364931 2.20539453,43.1326258 2.8175,43.7448426 C3.42969531,44.3568797 4.42570313,44.3569696 5.03798828,43.7447527 L5.03798828,43.7447527 L10.6893398,38.0930228 C11.0403594,37.7422605 11.6090703,37.7422605 11.96,38.0930228 C12.3108398,38.4439648 12.3108398,39.0128755 11.96,39.3637276 L11.96,39.3637276 L6.30855859,45.0154576 C5.65216016,45.6717892 4.78992969,46 3.92769922,46 C3.06546875,46 2.20341797,45.6718791 1.54701953,45.0154576 C0.2343125,43.7026145 0.2343125,41.5665043 1.54692969,40.2537511 L1.54692969,40.2537511 L11.7980117,30.0023087 C10.9825898,28.7306155 10.3782109,27.3113938 10.0333906,25.7946881 L10.0333906,25.7946881 L5.78117578,25.7946881 C3.58422656,25.7946881 1.796875,27.5821025 1.796875,29.779129 L1.796875,29.779129 L1.796875,30.6896375 L5.5703125,30.6896375 C6.06642969,30.6896375 6.46875,31.091972 6.46875,31.5881066 C6.46875,32.0842412 6.06642969,32.4865757 5.5703125,32.4865757 L5.5703125,32.4865757 L0.8984375,32.4865757 C0.402320312,32.4865757 0,32.0842412 0,31.5881066 L0,31.5881066 L0,29.779129 C0,27.0003438 1.97090234,24.6737581 4.58796094,24.1222777 C4.18150781,23.5195847 3.94396094,22.793981 3.94396094,22.0139302 L3.94396094,22.0139302 L3.94396094,21.2932681 C3.94396094,19.2085503 5.64003125,17.5124204 7.72467578,17.5124204 C8.76488672,17.5124204 9.70815625,17.9347907 10.3924063,18.6169084 C12.1628672,13.3511608 17.1455117,9.5476716 23,9.5476716 Z M13.728125,35.4266361 C13.9644141,35.4266361 14.1962109,35.5227723 14.3633203,35.6898875 C14.5304297,35.8570028 14.6265625,36.0888078 14.6265625,36.3251052 C14.6265625,36.5614025 14.5303398,36.7932076 14.3633203,36.9603228 C14.1962109,37.1274381 13.9644141,37.2235743 13.728125,37.2235743 C13.4918359,37.2235743 13.2600391,37.1273482 13.0929297,36.9603228 C12.9258203,36.7932076 12.8296875,36.5614025 12.8296875,36.3251052 C12.8296875,36.0888078 12.9259102,35.8570028 13.0929297,35.6898875 C13.2600391,35.5227723 13.4918359,35.4266361 13.728125,35.4266361 Z M23,11.3446098 C16.658918,11.3446098 11.5,16.5037091 11.5,22.8450141 C11.5,29.1863191 16.658918,34.3454184 23,34.3454184 C29.341082,34.3454184 34.5,29.1863191 34.5,22.8450141 C34.5,16.5037091 29.341082,11.3446098 23,11.3446098 Z M23,13.1415479 C28.350375,13.1415479 32.703125,17.4945408 32.703125,22.8450141 C32.703125,25.622182 31.530125,28.1302585 29.6540078,29.9006918 C29.6219336,29.9353727 29.5875234,29.9681668 29.5497891,29.9977265 C27.8224531,31.580829 25.5221836,32.5484802 23,32.5484802 C20.4778164,32.5484802 18.1775469,31.5809189 16.4502109,29.9977265 C16.4124766,29.968077 16.3780664,29.9353727 16.3459922,29.9006918 C14.469875,28.1302585 13.296875,25.622182 13.296875,22.8450141 C13.296875,17.494451 17.649625,13.1415479 23,13.1415479 Z M23,26.1058279 C20.9186797,26.1058279 19.058375,27.2423015 18.1037852,29.0485837 C19.4512617,30.1144376 21.152543,30.751542 23,30.751542 C24.847457,30.751542 26.5487383,30.1144376 27.8962148,29.0485837 C26.941625,27.2423015 25.0813203,26.1058279 23,26.1058279 Z M23,14.9384861 C18.6405117,14.9384861 15.09375,18.4853725 15.09375,22.8450141 C15.09375,24.688493 15.727957,26.3865097 16.7895508,27.7325961 C17.6126992,26.4193038 18.8173242,25.4178702 20.227332,24.8467134 C19.6568242,24.1968507 19.3098477,23.34627 19.3098477,22.4156357 L19.3098477,22.4156357 L19.3098477,21.7176151 C19.3098477,19.6828521 20.9653086,18.027333 23,18.027333 C25.0346914,18.027333 26.6901523,19.6828521 26.6901523,21.7176151 L26.6901523,21.7176151 L26.6901523,22.4156357 C26.6901523,23.34627 26.3430859,24.1968507 25.772668,24.8467134 C27.1826758,25.4177803 28.3873906,26.4193038 29.2104492,27.7325961 C30.272043,26.3865097 30.90625,24.688493 30.90625,22.8450141 C30.90625,18.4853725 27.3594883,14.9384861 23,14.9384861 Z M23,19.8241813 C21.9560156,19.8241813 21.1067227,20.6735041 21.1067227,21.7175252 L21.1067227,21.7175252 L21.1067227,22.4155459 C21.1067227,23.4595669 21.9560156,24.3088898 23,24.3088898 C24.0439844,24.3088898 24.8932773,23.4595669 24.8932773,22.4155459 L24.8932773,22.4155459 L24.8932773,21.7175252 C24.8932773,20.6735041 24.0439844,19.8241813 23,19.8241813 Z M7.72467578,19.3094484 C6.63073828,19.3094484 5.74083594,20.199382 5.74083594,21.293358 L5.74083594,21.293358 L5.74083594,22.01402 C5.74083594,23.1079061 6.63073828,23.9978398 7.72467578,23.9978398 C8.81861328,23.9978398 9.70851563,23.1079061 9.70851563,22.01402 L9.70851563,22.01402 L9.70851563,21.293358 C9.70851563,20.199382 8.81861328,19.3094484 7.72467578,19.3094484 Z M38.2752344,19.3094484 C37.1812969,19.3094484 36.2913945,20.199382 36.2913945,21.293358 L36.2913945,21.293358 L36.2913945,22.01402 C36.2913945,23.1079061 37.1812969,23.9978398 38.2752344,23.9978398 C39.3691719,23.9978398 40.2590742,23.1079061 40.2590742,22.01402 L40.2590742,22.01402 L40.2590742,21.293358 C40.2590742,20.199382 39.3691719,19.3094484 38.2752344,19.3094484 Z M23.0179688,6.01974288 C23.2550664,6.01974288 23.4860547,6.11587907 23.6530742,6.28299432 C23.8202734,6.45010957 23.9164063,6.6819146 23.9164063,6.91821197 C23.9164063,7.15450934 23.8201836,7.38631436 23.6530742,7.55333977 C23.4860547,7.72054486 23.2551563,7.81668106 23.0179688,7.81668106 C22.7815898,7.81668106 22.5498828,7.72045502 22.3827734,7.55333977 C22.2155742,7.38631436 22.1195313,7.15450934 22.1195313,6.91821197 C22.1195313,6.6819146 22.2156641,6.45019942 22.3827734,6.28299432 C22.5498828,6.11578923 22.7815898,6.01974288 23.0179688,6.01974288 Z M15.3650781,3.52002219 C15.7160977,3.16925986 16.2848086,3.16925986 16.6357383,3.52002219 L16.6357383,3.52002219 L18.2300156,5.11435558 C18.5808555,5.46529761 18.5808555,6.03420823 18.2300156,6.38506041 C18.0545508,6.56044158 17.8246406,6.64822201 17.5947305,6.64822201 C17.3648203,6.64822201 17.1349102,6.56044158 16.9594453,6.38506041 L16.9594453,6.38506041 L15.3650781,4.79072702 C15.0142383,4.43978499 15.0142383,3.87087437 15.3650781,3.52002219 Z M29.3641719,3.52433484 C29.7151914,3.17357251 30.2839023,3.17357251 30.634832,3.52433484 C30.9856719,3.87527687 30.9856719,4.44418749 30.634832,4.79503967 L30.634832,4.79503967 L29.0557383,6.37418894 C28.8802734,6.5495701 28.6504531,6.63735053 28.4204531,6.63735053 C28.1904531,6.63735053 27.9606328,6.5495701 27.7850781,6.37418894 C27.4342383,6.02324691 27.4342383,5.45433629 27.7850781,5.10348411 L27.7850781,5.10348411 Z M23.0182383,1.55431223e-14 C23.5143555,1.55431223e-14 23.9166758,0.402334457 23.9166758,0.898469087 L23.9166758,0.898469087 L23.9166758,3.95542031 C23.9166758,4.45155494 23.5143555,4.85388939 23.0182383,4.85388939 C22.5221211,4.85388939 22.1198008,4.45164478 22.1198008,3.95542031 L22.1198008,3.95542031 L22.1198008,0.898469087 C22.1198008,0.402334457 22.5221211,1.55431223e-14 23.0182383,1.55431223e-14 Z" id="Combined-Shape" fill-rule="nonzero"></path>
                </g>
            </g>
        </g>
    </g>
</svg>